simulation/qsim/ULA.msim.vcd
$comment
	File created using the following command:
		vcd file ULA.msim.vcd -direction
$end
$date
	Fri Jul 23 01:25:03 2021
$end
$version
	ModelSim Version 2020.1
$end
$timescale
	1ps
$end

$scope module conv_2_digitos_vlg_vec_tst $end
$var reg 6 ! F [5:0] $end
$var wire 1 " D1 $end
$var wire 1 # D2 $end
$var wire 1 $ D3 $end
$var wire 1 % D4 $end
$var wire 1 & D5 $end
$var wire 1 ' D6 $end
$var wire 1 ( D7 $end
$var wire 1 ) D8 $end

$scope module i1 $end
$var wire 1 * gnd $end
$var wire 1 + vcc $end
$var wire 1 , unknown $end
$var tri1 1 - devclrn $end
$var tri1 1 . devpor $end
$var tri1 1 / devoe $end
$var wire 1 0 F[5]~input_o $end
$var wire 1 1 D3~output_o $end
$var wire 1 2 D5~output_o $end
$var wire 1 3 D6~output_o $end
$var wire 1 4 D7~output_o $end
$var wire 1 5 D8~output_o $end
$var wire 1 6 D1~output_o $end
$var wire 1 7 D2~output_o $end
$var wire 1 8 D4~output_o $end
$var wire 1 9 F[1]~input_o $end
$var wire 1 : F[3]~input_o $end
$var wire 1 ; F[4]~input_o $end
$var wire 1 < F[2]~input_o $end
$var wire 1 = inst2|or_D5~combout $end
$var wire 1 > inst6|inst2~0_combout $end
$var wire 1 ? C_D7|or_D7~0_combout $end
$var wire 1 @ F[0]~input_o $end
$var wire 1 A inst3|or_D3~combout $end
$upscope $end
$upscope $end
$enddefinitions $end
#0
$dumpvars
b10100 !
0"
0#
0$
0%
0&
0'
1(
0)
0*
1+
x,
1-
1.
1/
00
01
02
03
14
05
06
07
08
09
0:
1;
1<
0=
0>
1?
0@
0A
$end
#5000
b110100 !
b100100 !
b101100 !
b101110 !
b101111 !
19
1:
0;
10
1@
15
1)
1A
0?
1>
13
04
18
1%
0(
1'
#10000
b101011 !
b1011 !
b11011 !
b11001 !
09
0<
1;
00
0A
1?
14
08
0%
1(
#15000
b11000 !
b1000 !
b1010 !
19
0;
0@
05
0)
1A
0?
04
18
1%
0(
#20000
b101010 !
b101011 !
b101001 !
09
10
1@
15
1)
1?
0>
03
14
1(
0'
#25000
b111001 !
b11001 !
b11011 !
19
1;
00
0A
1>
13
08
0%
1'
#30000
b11111 !
b1111 !
1<
0;
1A
0?
04
18
1%
0(
#35000
b111 !
b110 !
b10 !
0<
0:
0@
05
0)
0>
03
0'
#40000
b10010 !
b11010 !
1:
1;
0A
1?
1>
13
14
08
0%
1(
1'
#45000
b11000 !
b11001 !
b10001 !
09
0:
1@
15
1)
0>
03
0'
#50000
b10101 !
b10100 !
1<
0@
05
0)
#55000
b110100 !
b111100 !
b111101 !
1:
10
1@
15
1)
1=
12
1&
#60000
b101101 !
b1101 !
b101 !
b100 !
0:
0;
00
0@
05
0)
1A
0=
02
18
1%
0&
#65000
b10100 !
b110100 !
b110101 !
1;
10
1@
15
1)
0A
08
0%
#70000
b110111 !
b111111 !
b11111 !
19
1:
00
1A
0?
1>
13
04
18
1%
0(
1'
#75000
b11011 !
b111011 !
0<
10
0A
1?
14
08
0%
1(
#80000
b101011 !
b101001 !
b100001 !
b1 !
09
0:
0;
00
1A
0>
03
18
1%
0'
#85000
b0 !
b10000 !
1;
0@
05
0)
0A
08
0%
#90000
b10100 !
b110100 !
b100100 !
1<
0;
10
1A
18
1%
#95000
b100101 !
b110101 !
1;
1@
15
1)
0A
08
0%
#100000
b111101 !
1:
1=
12
1&
#105000
b111111 !
b11111 !
b11110 !
b1110 !
19
0;
00
0@
05
0)
1A
0?
1>
0=
02
13
04
18
1%
0(
1'
0&
#110000
b1100 !
b101100 !
09
10
1?
0>
03
14
1(
0'
#115000
b101000 !
b1000 !
0<
00
#120000
b0 !
b1 !
b101 !
1<
0:
1@
15
1)
#125000
b10101 !
b110101 !
b110100 !
1;
10
0@
05
0)
0A
08
0%
#130000
b110110 !
b111110 !
b101110 !
19
1:
0;
1A
0?
1>
13
04
18
1%
0(
1'
#135000
b101010 !
b1010 !
b1011 !
b11 !
b10011 !
0<
0:
1;
00
1@
15
1)
0A
0>
1=
12
03
08
0%
0'
1&
#140000
b10111 !
b110111 !
b110110 !
b111110 !
1<
1:
10
0@
05
0)
1A
1>
0=
02
13
18
1%
1'
0&
#145000
b101110 !
b101010 !
b1010 !
0<
0;
00
#150000
b1011 !
b11011 !
b111011 !
1;
10
1@
15
1)
0A
1?
14
08
0%
1(
#155000
b111001 !
b111101 !
b101101 !
b1101 !
09
1<
0;
00
1A
0>
03
18
1%
0'
#160000
b101 !
b100 !
b0 !
0<
0:
0@
05
0)
#165000
b10 !
b10010 !
b110010 !
b111010 !
b111011 !
19
1:
1;
10
1@
15
1)
0A
1>
13
08
0%
1'
#170000
b111111 !
b101111 !
1<
0;
1A
0?
04
18
1%
0(
#175000
b101101 !
b100101 !
09
0:
1?
0>
03
14
1(
0'
#180000
b101 !
b111 !
19
00
0?
1>
13
04
0(
1'
#185000
b110 !
b10 !
b10010 !
b10000 !
09
0<
1;
0@
05
0)
0A
1?
0>
03
14
08
0%
1(
0'
#190000
b10100 !
b10110 !
19
1<
0?
04
0(
#195000
b110110 !
b110111 !
b110101 !
09
10
1@
15
1)
1?
14
1(
#200000
b111101 !
b111001 !
b111000 !
0<
1:
0@
05
0)
1>
13
1'
#205000
b11000 !
b11001 !
00
1@
15
1)
#210000
b111001 !
b111000 !
10
0@
05
0)
#215000
b111001 !
1@
15
1)
#220000
b111011 !
b111111 !
b11111 !
b11110 !
19
1<
00
0@
05
0)
1A
0?
04
18
1%
0(
#225000
b1110 !
b101110 !
0;
10
#230000
b100110 !
b110 !
0:
00
#235000
b10 !
b10010 !
b11010 !
b111010 !
0<
1:
1;
10
0A
1?
14
08
0%
1(
#240000
b111000 !
b111001 !
b111101 !
b101101 !
b100101 !
b101 !
09
1<
0:
0;
00
1@
15
1)
1A
0>
03
18
1%
0'
#245000
b10101 !
b110101 !
1;
10
0A
08
0%
#250000
b110111 !
b110110 !
b100110 !
19
0;
0@
05
0)
1A
0?
1>
13
04
18
1%
0(
1'
#255000
b101110 !
b1110 !
b1100 !
09
1:
00
1?
0>
03
14
1(
0'
#260000
b1101 !
1@
15
1)
#265000
b1001 !
b11001 !
b111001 !
b111011 !
b111010 !
19
0<
1;
10
0@
05
0)
0A
1>
13
08
0%
1'
#270000
b111110 !
b101110 !
b1110 !
b1100 !
09
1<
0;
00
1A
0>
03
18
1%
0'
#275000
b1101 !
b11101 !
b111101 !
b111111 !
19
1;
10
1@
15
1)
0?
1>
13
04
0(
1'
#280000
b11111 !
b11101 !
09
00
0A
1?
0>
1=
12
03
14
08
0%
1(
0'
1&
#290000
b10101 !
b10111 !
19
0:
0?
0=
02
04
0(
0&
#295000
b10011 !
b10010 !
b110010 !
b111010 !
0<
1:
10
0@
05
0)
1?
1>
13
14
1(
1'
#305000
b111011 !
b11011 !
00
1@
15
1)
#310000
b1011 !
b1111 !
b1110 !
1<
0;
0@
05
0)
1A
0?
04
18
1%
0(
#315000
b101110 !
b111110 !
b111111 !
1;
10
1@
15
1)
#320000
b110111 !
b110011 !
0<
0:
0A
0>
1=
12
03
08
0%
0'
1&
#325000
b10011 !
b11 !
0;
00
1A
0=
02
18
1%
0&
#330000
b1 !
b0 !
b100000 !
b110000 !
09
1;
10
0@
05
0)
0A
1?
14
08
0%
1(
#335000
b111000 !
b111001 !
1:
1@
15
1)
1>
13
1'
#340000
b11001 !
b10001 !
0:
00
0>
03
0'
#345000
b10101 !
b10100 !
b110100 !
1<
10
0@
05
0)
#350000
b100100 !
b101100 !
b101000 !
0<
1:
0;
1A
18
1%
#355000
b101001 !
b111001 !
b111101 !
1<
1;
1@
15
1)
0A
1=
12
08
0%
1&
#360000
b111111 !
b11111 !
b10111 !
b10110 !
b110 !
19
0:
0;
00
0@
05
0)
1A
0?
1>
0=
02
13
04
18
1%
0(
1'
0&
#365000
b111 !
1@
15
1)
#370000
b1111 !
b11111 !
1:
1;
#375000
b111111 !
b111110 !
b101110 !
0;
10
0@
05
0)
#380000
b101100 !
b100100 !
09
0:
1?
0>
03
14
1(
0'
#385000
b100 !
b101 !
00
1@
15
1)
#390000
b1 !
b10001 !
b11001 !
b11000 !
0<
1:
1;
0@
05
0)
0A
1>
13
08
0%
1'
#395000
b11010 !
b10010 !
19
0:
0?
0>
1=
12
03
04
0(
0'
1&
#400000
b110010 !
b110011 !
b111011 !
1:
10
1@
15
1)
1?
1>
0=
02
13
14
1(
1'
0&
#405000
b111010 !
0@
05
0)
#410000
b110010 !
0:
0?
0>
1=
12
03
04
0(
0'
1&
#415000
b110110 !
b100110 !
b110 !
b111 !
1<
0;
00
1@
15
1)
1A
1>
0=
02
13
18
1%
1'
0&
#420000
b101 !
b10101 !
b110101 !
09
1;
10
0A
1?
0>
03
14
08
0%
1(
0'
#425000
b110111 !
b10111 !
19
00
0?
04
0(
#430000
b11111 !
b11011 !
b1011 !
0<
1:
0;
1A
1>
13
18
1%
1'
#435000
b1010 !
b1000 !
b101000 !
b100000 !
09
0:
10
0@
05
0)
1?
0>
03
14
1(
0'
#440000
b101000 !
1:
#445000
b101100 !
b111100 !
1<
1;
0A
1=
12
08
0%
1&
#450000
b111101 !
b111111 !
b11111 !
b11011 !
19
0<
00
1@
15
1)
1>
0=
02
13
1'
0&
#455000
b1011 !
b1010 !
b1000 !
b101000 !
09
0;
10
0@
05
0)
1A
0>
03
18
1%
0'
#460000
b101100 !
1<
#465000
b101110 !
b101010 !
19
0<
0?
1>
13
04
0(
1'
#470000
b100010 !
b110010 !
b110000 !
09
0:
1;
0A
1?
0>
03
14
08
0%
1(
0'
#475000
b111000 !
b101000 !
b101010 !
19
1:
0;
1A
0?
1>
13
04
18
1%
0(
1'
#480000
b1010 !
b1110 !
b11110 !
1<
1;
00
#485000
b11111 !
b10111 !
b110111 !
b100111 !
0:
0;
10
1@
15
1)
#490000
b101111 !
b1111 !
1:
00
#495000
b1101 !
b1001 !
b101001 !
09
0<
10
1?
0>
03
14
1(
0'
#500000
b101000 !
b111000 !
b110000 !
b110100 !
1<
0:
1;
0@
05
0)
0A
08
0%
#505000
b10100 !
b10101 !
b101 !
b1101 !
1:
0;
00
1@
15
1)
1A
18
1%
#510000
b1001 !
b101001 !
b101000 !
0<
10
0@
05
0)
#515000
b100000 !
0:
#520000
b110000 !
b10000 !
b10001 !
1;
00
1@
15
1)
0A
08
0%
#525000
b10011 !
b10111 !
b11111 !
b111111 !
19
1<
1:
10
1A
0?
1>
13
04
18
1%
0(
1'
#530000
b101111 !
b101110 !
b101100 !
b101000 !
09
0<
0;
0@
05
0)
1?
0>
03
14
1(
0'
#535000
b1000 !
b11000 !
b11010 !
b11110 !
19
1<
1;
00
0?
1>
13
04
0(
1'
#540000
b111110 !
b101110 !
b101100 !
b101000 !
09
0<
0;
10
1?
0>
03
14
1(
0'
#545000
b100000 !
b100001 !
b1 !
b10001 !
b10011 !
b10111 !
19
1<
0:
1;
00
1@
15
1)
0A
0?
04
08
0%
0(
#550000
b11111 !
b111111 !
b101111 !
1:
0;
10
1A
1>
13
18
1%
1'
#555000
b101110 !
b111110 !
1;
0@
05
0)
#560000
b111010 !
b110010 !
b10010 !
b10011 !
0<
0:
00
1@
15
1)
0A
0>
1=
12
03
08
0%
0'
1&
#565000
b10111 !
b110111 !
1<
10
0=
02
0&
#570000
b100111 !
b100110 !
b100010 !
0<
0;
0@
05
0)
1A
18
1%
#575000
b110010 !
1;
0A
1=
12
08
0%
1&
#580000
b110000 !
b110001 !
b110101 !
09
1<
1@
15
1)
1?
0=
02
14
1(
0&
#585000
b10101 !
b101 !
0;
00
1A
18
1%
#590000
b1101 !
b1111 !
b1110 !
b1010 !
19
0<
1:
0@
05
0)
0?
1>
13
04
0(
1'
#595000
b10 !
b0 !
09
0:
1?
0>
03
14
1(
0'
#600000
b10000 !
b10001 !
b10101 !
b11101 !
b11111 !
19
1<
1:
1;
1@
15
1)
0?
1>
13
04
0(
1'
#605000
b111111 !
b101111 !
b101110 !
b100110 !
b100100 !
09
0:
0;
10
0@
05
0)
1?
0>
03
14
1(
0'
#610000
b100000 !
b110000 !
0<
1;
0A
08
0%
#615000
b111000 !
b111100 !
1<
1:
1=
12
1&
#620000
b111101 !
b111111 !
b101111 !
b101011 !
19
0<
0;
1@
15
1)
1A
0?
1>
0=
02
13
04
18
1%
0(
1'
0&
#625000
b1011 !
b11 !
b10011 !
0:
1;
00
0A
0>
1=
12
03
08
0%
0'
1&
#630000
b10010 !
b10000 !
b110000 !
b100000 !
09
0;
10
0@
05
0)
1A
1?
0=
02
14
18
1%
1(
0&
#635000
b100100 !
b101100 !
b101101 !
b101111 !
b1111 !
b11111 !
19
1<
1:
1;
00
1@
15
1)
0?
1>
13
04
0(
1'
#640000
b10111 !
b10110 !
b10100 !
b110100 !
09
0:
10
0@
05
0)
0A
1?
0>
03
14
08
0%
1(
0'
#645000
b110110 !
b10110 !
19
00
0?
04
0(
#650000
b10010 !
b10 !
b1010 !
0<
1:
0;
1A
1>
13
18
1%
1'
#660000
b1000 !
b101000 !
09
10
1?
0>
03
14
1(
0'
#665000
b101001 !
b101101 !
b101111 !
19
1<
1@
15
1)
0?
1>
13
04
0(
1'
#670000
b111111 !
b111110 !
1;
0@
05
0)
#675000
b110110 !
b10110 !
b10111 !
0:
00
1@
15
1)
0A
0>
03
08
0%
0'
#680000
b10101 !
b101 !
b1101 !
b1100 !
09
1:
0;
0@
05
0)
1A
1?
14
18
1%
1(
#685000
b1000 !
0<
#690000
b1001 !
b1101 !
1<
1@
15
1)
#695000
b101101 !
b101111 !
b100111 !
b100011 !
19
0<
0:
10
0?
04
0(
#700000
b110011 !
b110010 !
b110000 !
b110100 !
09
1<
1;
0@
05
0)
0A
1?
14
08
0%
1(
#705000
b111100 !
b101100 !
b101110 !
19
1:
0;
1A
0?
1>
13
04
18
1%
0(
1'
#710000
b111110 !
b111100 !
09
1;
0A
1?
0>
1=
12
03
14
08
0%
1(
0'
1&
#715000
b111000 !
0<
1>
0=
02
13
1'
0&
#720000
b101000 !
b101010 !
19
0;
1A
0?
04
18
1%
0(
#725000
b101011 !
b101001 !
09
1@
15
1)
1?
0>
03
14
1(
0'
#730000
b1001 !
b1 !
b101 !
b10101 !
b10100 !
b10110 !
19
1<
0:
1;
00
0@
05
0)
0A
0?
04
08
0%
0(
#735000
b11110 !
b11010 !
b1010 !
b1000 !
09
0<
1:
0;
1A
1?
14
18
1%
1(
#740000
b1001 !
b1 !
b101 !
b111 !
19
1<
0:
1@
15
1)
0?
1>
13
04
0(
1'
#745000
b100111 !
b110111 !
b110110 !
b110010 !
b110000 !
09
0<
1;
10
0@
05
0)
0A
1?
0>
03
14
08
0%
1(
0'
#750000
b10000 !
00
#755000
b10001 !
b10011 !
b110011 !
19
10
1@
15
1)
0?
1=
12
04
0(
1&
#760000
b111011 !
b101011 !
b101010 !
b101000 !
09
1:
0;
0@
05
0)
1A
1?
0=
02
14
18
1%
1(
0&
#765000
b1000 !
b0 !
b10000 !
b10001 !
0:
1;
00
1@
15
1)
0A
08
0%
#770000
b11001 !
b11000 !
1:
0@
05
0)
1>
13
1'
#775000
b11010 !
b111010 !
b110010 !
b110011 !
19
0:
10
1@
15
1)
0?
0>
1=
12
03
04
0(
0'
1&
#780000
b100011 !
b101011 !
b101010 !
1:
0;
0@
05
0)
1A
1>
0=
02
13
18
1%
1'
0&
#785000
b1010 !
b10 !
b11 !
0:
00
1@
15
1)
0>
03
0'
#790000
b10011 !
b11011 !
b11010 !
1:
1;
0@
05
0)
0A
1?
1>
13
14
08
0%
1(
1'
#795000
b11110 !
b111110 !
b110110 !
b110111 !
1<
0:
10
1@
15
1)
0?
0>
03
04
0(
0'
#800000
b110101 !
b110001 !
b10001 !
b11001 !
b11000 !
09
0<
1:
00
0@
05
0)
1?
1>
13
14
1(
1'
#805000
b11010 !
b10010 !
b10011 !
19
0:
1@
15
1)
0?
0>
1=
12
03
04
0(
0'
1&
#810000
b10111 !
b10101 !
b11101 !
09
1<
1:
1?
14
1(
#815000
b1101 !
b101101 !
b101111 !
19
0;
10
1A
0?
1>
0=
02
13
04
18
1%
0(
1'
0&
#820000
b101110 !
b101010 !
b111010 !
b111000 !
09
0<
1;
0@
05
0)
0A
1?
14
08
0%
1(
#825000
b11000 !
b11001 !
b11101 !
b11111 !
19
1<
00
1@
15
1)
1A
0?
04
18
1%
0(
#830000
b10111 !
b10011 !
b10001 !
09
0<
0:
0A
1?
0>
03
14
08
0%
1(
0'
#835000
b1 !
b100001 !
b100101 !
b100111 !
19
1<
0;
10
1A
0?
1>
13
04
18
1%
0(
1'
#840000
b111 !
b11 !
b1 !
09
0<
00
1?
0>
03
14
1(
0'
#845000
b1001 !
b101001 !
1:
10
#850000
b101000 !
b111000 !
b111100 !
b11100 !
1<
1;
00
0@
05
0)
0A
1=
12
08
0%
1&
#855000
b11110 !
b10110 !
b110 !
19
0:
0;
1A
0?
1>
0=
02
13
04
18
1%
0(
1'
0&
#860000
b111 !
b11 !
b1 !
b1001 !
b11001 !
09
0<
1:
1;
1@
15
1)
0A
1?
14
08
0%
1(
#865000
b111001 !
b111101 !
1<
10
0>
1=
12
03
0'
1&
#870000
b111100 !
b111110 !
b11110 !
19
00
0@
05
0)
1A
0?
1>
0=
02
13
04
18
1%
0(
1'
0&
#875000
b1110 !
b1111 !
b101111 !
0;
10
1@
15
1)
#880000
b100111 !
b100011 !
b100001 !
09
0<
0:
1?
0>
03
14
1(
0'
#885000
b110001 !
b110000 !
b111000 !
1:
1;
0@
05
0)
0A
1>
13
08
0%
1'
#890000
b11000 !
b11010 !
b1010 !
19
0;
00
1A
0?
04
18
1%
0(
#895000
b1110 !
b101110 !
b111110 !
1<
1;
10
#900000
b111111 !
b111101 !
b11101 !
b1101 !
09
0;
00
1@
15
1)
1?
0>
03
14
1(
0'
#905000
b1111 !
b11111 !
19
1;
0?
1>
13
04
0(
1'
#910000
b11011 !
b111011 !
b101011 !
0<
0;
10
#915000
b101010 !
b101110 !
b1110 !
b11110 !
1<
1;
00
0@
05
0)
#920000
b11010 !
b1010 !
0<
0;
#925000
b1000 !
b1001 !
b1101 !
09
1<
1@
15
1)
1?
0>
03
14
1(
0'
#930000
b101 !
b100101 !
b110101 !
b110111 !
b110011 !
19
0<
0:
1;
10
0A
0?
1=
12
04
08
0%
0(
1&
#935000
b110010 !
b111010 !
1:
0@
05
0)
1?
1>
0=
02
13
14
1(
1'
0&
#945000
b101010 !
0;
1A
0?
04
18
1%
0(
#950000
b1010 !
b10 !
b10010 !
0:
1;
00
0A
0>
1=
12
03
08
0%
0'
1&
#955000
b10000 !
b10100 !
b10101 !
09
1<
1@
15
1)
1?
0=
02
14
1(
0&
#960000
b11101 !
b11111 !
b11011 !
b11010 !
19
0<
1:
0@
05
0)
1>
13
1'
#965000
b111010 !
b101010 !
b101110 !
1<
0;
10
1A
0?
04
18
1%
0(
#970000
b100110 !
b100100 !
b100101 !
b101 !
b10101 !
09
0:
1;
00
1@
15
1)
0A
1?
0>
03
14
08
0%
1(
0'
#975000
b10001 !
b10000 !
b110000 !
0<
10
0@
05
0)
#980000
b111000 !
b111001 !
b11001 !
1:
00
1@
15
1)
1>
13
1'
#985000
b11101 !
b10101 !
b10100 !
b110100 !
1<
0:
10
0@
05
0)
0>
03
0'
#990000
b110110 !
b110010 !
b111010 !
b111011 !
b11011 !
19
0<
1:
00
1@
15
1)
1>
13
1'
#995000
b11111 !
b111111 !
1<
10
1A
0?
04
18
1%
0(
