simulation/qsim/ULA.msim.vcd
$comment
	File created using the following command:
		vcd file ULA.msim.vcd -direction
$end
$date
	Fri Jul 23 10:00:02 2021
$end
$version
	ModelSim Version 2020.1
$end
$timescale
	1ps
$end

$scope module conv_D6_vlg_vec_tst $end
$var reg 1 ! X1 $end
$var reg 1 " X2 $end
$var reg 1 # X3 $end
$var reg 1 $ X4 $end
$var wire 1 % D6 $end

$scope module i1 $end
$var wire 1 & gnd $end
$var wire 1 ' vcc $end
$var wire 1 ( unknown $end
$var tri1 1 ) devclrn $end
$var tri1 1 * devpor $end
$var tri1 1 + devoe $end
$var wire 1 , D6~output_o $end
$var wire 1 - X3~input_o $end
$var wire 1 . X4~input_o $end
$var wire 1 / X2~input_o $end
$var wire 1 0 X1~input_o $end
$var wire 1 1 inst2~0_combout $end
$upscope $end
$upscope $end
$enddefinitions $end
#0
$dumpvars
0!
0"
0#
0$
0%
0&
1'
x(
1)
1*
1+
0,
0-
0.
0/
00
01
$end
#2500
1!
10
#5000
1"
0!
1/
00
#7500
1!
10
#10000
1#
0"
0!
1-
0/
00
#12500
1!
10
#15000
1"
0!
1/
00
#17500
1!
10
11
1,
1%
#20000
1$
0#
0"
0!
1.
0-
0/
00
#22500
1!
10
01
0,
0%
#25000
1"
0!
1/
00
#27500
1!
10
#30000
1#
0"
0!
1-
0/
00
11
1,
1%
#32500
1!
10
#35000
1"
0!
1/
00
01
0,
0%
#37500
1!
10
#40000
0$
0#
0"
0!
0.
0-
0/
00
#42500
1!
10
#45000
1"
0!
1/
00
#47500
1!
10
#50000
1#
0"
0!
1-
0/
00
#52500
1!
10
#55000
1"
0!
1/
00
#57500
1!
10
11
1,
1%
#60000
1$
0#
0"
0!
1.
0-
0/
00
#62500
1!
10
01
0,
0%
#65000
1"
0!
1/
00
#67500
1!
10
#70000
1#
0"
0!
1-
0/
00
11
1,
1%
#72500
1!
10
#75000
1"
0!
1/
00
01
0,
0%
#77500
1!
10
#80000
0$
0#
0"
0!
0.
0-
0/
00
#82500
1!
10
#85000
1"
0!
1/
00
#87500
1!
10
#90000
1#
0"
0!
1-
0/
00
#92500
1!
10
#95000
1"
0!
1/
00
#97500
1!
10
11
1,
1%
#100000
1$
0#
0"
0!
1.
0-
0/
00
#102500
1!
10
01
0,
0%
#105000
1"
0!
1/
00
#107500
1!
10
#110000
1#
0"
0!
1-
0/
00
11
1,
1%
#112500
1!
10
#115000
1"
0!
1/
00
01
0,
0%
#117500
1!
10
#120000
0$
0#
0"
0!
0.
0-
0/
00
#122500
1!
10
#125000
1"
0!
1/
00
#127500
1!
10
#130000
1#
0"
0!
1-
0/
00
#132500
1!
10
#135000
1"
0!
1/
00
#137500
1!
10
11
1,
1%
#140000
1$
0#
0"
0!
1.
0-
0/
00
#142500
1!
10
01
0,
0%
#145000
1"
0!
1/
00
#147500
1!
10
#150000
1#
0"
0!
1-
0/
00
11
1,
1%
#152500
1!
10
#155000
1"
0!
1/
00
01
0,
0%
#157500
1!
10
#160000
0$
0#
0"
0!
0.
0-
0/
00
#162500
1!
10
#165000
1"
0!
1/
00
#167500
1!
10
#170000
1#
0"
0!
1-
0/
00
#172500
1!
10
#175000
1"
0!
1/
00
#177500
1!
10
11
1,
1%
#180000
1$
0#
0"
0!
1.
0-
0/
00
#182500
1!
10
01
0,
0%
#185000
1"
0!
1/
00
#187500
1!
10
#190000
1#
0"
0!
1-
0/
00
11
1,
1%
#192500
1!
10
#195000
1"
0!
1/
00
01
0,
0%
#197500
1!
10
#200000
0$
0#
0"
0!
0.
0-
0/
00
#202500
1!
10
#205000
1"
0!
1/
00
#207500
1!
10
#210000
1#
0"
0!
1-
0/
00
#212500
1!
10
#215000
1"
0!
1/
00
#217500
1!
10
11
1,
1%
#220000
1$
0#
0"
0!
1.
0-
0/
00
#222500
1!
10
01
0,
0%
#225000
1"
0!
1/
00
#227500
1!
10
#230000
1#
0"
0!
1-
0/
00
11
1,
1%
#232500
1!
10
#235000
1"
0!
1/
00
01
0,
0%
#237500
1!
10
#240000
0$
0#
0"
0!
0.
0-
0/
00
#242500
1!
10
#245000
1"
0!
1/
00
#247500
1!
10
#250000
1#
0"
0!
1-
0/
00
#252500
1!
10
#255000
1"
0!
1/
00
#257500
1!
10
11
1,
1%
#260000
1$
0#
0"
0!
1.
0-
0/
00
#262500
1!
10
01
0,
0%
#265000
1"
0!
1/
00
#267500
1!
10
#270000
1#
0"
0!
1-
0/
00
11
1,
1%
#272500
1!
10
#275000
1"
0!
1/
00
01
0,
0%
#277500
1!
10
#280000
0$
0#
0"
0!
0.
0-
0/
00
#282500
1!
10
#285000
1"
0!
1/
00
#287500
1!
10
#290000
1#
0"
0!
1-
0/
00
#292500
1!
10
#295000
1"
0!
1/
00
#297500
1!
10
11
1,
1%
#300000
1$
0#
0"
0!
1.
0-
0/
00
#302500
1!
10
01
0,
0%
#305000
1"
0!
1/
00
#307500
1!
10
#310000
1#
0"
0!
1-
0/
00
11
1,
1%
#312500
1!
10
#315000
1"
0!
1/
00
01
0,
0%
#317500
1!
10
#320000
0$
0#
0"
0!
0.
0-
0/
00
#322500
1!
10
#325000
1"
0!
1/
00
#327500
1!
10
#330000
1#
0"
0!
1-
0/
00
#332500
1!
10
#335000
1"
0!
1/
00
#337500
1!
10
11
1,
1%
#340000
1$
0#
0"
0!
1.
0-
0/
00
#342500
1!
10
01
0,
0%
#345000
1"
0!
1/
00
#347500
1!
10
#350000
1#
0"
0!
1-
0/
00
11
1,
1%
#352500
1!
10
#355000
1"
0!
1/
00
01
0,
0%
#357500
1!
10
#360000
0$
0#
0"
0!
0.
0-
0/
00
#362500
1!
10
#365000
1"
0!
1/
00
#367500
1!
10
#370000
1#
0"
0!
1-
0/
00
#372500
1!
10
#375000
1"
0!
1/
00
#377500
1!
10
11
1,
1%
#380000
1$
0#
0"
0!
1.
0-
0/
00
#382500
1!
10
01
0,
0%
#385000
1"
0!
1/
00
#387500
1!
10
#390000
1#
0"
0!
1-
0/
00
11
1,
1%
#392500
1!
10
#395000
1"
0!
1/
00
01
0,
0%
#397500
1!
10
#400000
0$
0#
0"
0!
0.
0-
0/
00
#402500
1!
10
#405000
1"
0!
1/
00
#407500
1!
10
#410000
1#
0"
0!
1-
0/
00
#412500
1!
10
#415000
1"
0!
1/
00
#417500
1!
10
11
1,
1%
#420000
1$
0#
0"
0!
1.
0-
0/
00
#422500
1!
10
01
0,
0%
#425000
1"
0!
1/
00
#427500
1!
10
#430000
1#
0"
0!
1-
0/
00
11
1,
1%
#432500
1!
10
#435000
1"
0!
1/
00
01
0,
0%
#437500
1!
10
#440000
0$
0#
0"
0!
0.
0-
0/
00
#442500
1!
10
#445000
1"
0!
1/
00
#447500
1!
10
#450000
1#
0"
0!
1-
0/
00
#452500
1!
10
#455000
1"
0!
1/
00
#457500
1!
10
11
1,
1%
#460000
1$
0#
0"
0!
1.
0-
0/
00
#462500
1!
10
01
0,
0%
#465000
1"
0!
1/
00
#467500
1!
10
#470000
1#
0"
0!
1-
0/
00
11
1,
1%
#472500
1!
10
#475000
1"
0!
1/
00
01
0,
0%
#477500
1!
10
#480000
0$
0#
0"
0!
0.
0-
0/
00
#482500
1!
10
#485000
1"
0!
1/
00
#487500
1!
10
#490000
1#
0"
0!
1-
0/
00
#492500
1!
10
#495000
1"
0!
1/
00
#497500
1!
10
11
1,
1%
#500000
1$
0#
0"
0!
1.
0-
0/
00
#502500
1!
10
01
0,
0%
#505000
1"
0!
1/
00
#507500
1!
10
#510000
1#
0"
0!
1-
0/
00
11
1,
1%
#512500
1!
10
#515000
1"
0!
1/
00
01
0,
0%
#517500
1!
10
#520000
0$
0#
0"
0!
0.
0-
0/
00
#522500
1!
10
#525000
1"
0!
1/
00
#527500
1!
10
#530000
1#
0"
0!
1-
0/
00
#532500
1!
10
#535000
1"
0!
1/
00
#537500
1!
10
11
1,
1%
#540000
1$
0#
0"
0!
1.
0-
0/
00
#542500
1!
10
01
0,
0%
#545000
1"
0!
1/
00
#547500
1!
10
#550000
1#
0"
0!
1-
0/
00
11
1,
1%
#552500
1!
10
#555000
1"
0!
1/
00
01
0,
0%
#557500
1!
10
#560000
0$
0#
0"
0!
0.
0-
0/
00
#562500
1!
10
#565000
1"
0!
1/
00
#567500
1!
10
#570000
1#
0"
0!
1-
0/
00
#572500
1!
10
#575000
1"
0!
1/
00
#577500
1!
10
11
1,
1%
#580000
1$
0#
0"
0!
1.
0-
0/
00
#582500
1!
10
01
0,
0%
#585000
1"
0!
1/
00
#587500
1!
10
#590000
1#
0"
0!
1-
0/
00
11
1,
1%
#592500
1!
10
#595000
1"
0!
1/
00
01
0,
0%
#597500
1!
10
#600000
0$
0#
0"
0!
0.
0-
0/
00
#602500
1!
10
#605000
1"
0!
1/
00
#607500
1!
10
#610000
1#
0"
0!
1-
0/
00
#612500
1!
10
#615000
1"
0!
1/
00
#617500
1!
10
11
1,
1%
#620000
1$
0#
0"
0!
1.
0-
0/
00
#622500
1!
10
01
0,
0%
#625000
1"
0!
1/
00
#627500
1!
10
#630000
1#
0"
0!
1-
0/
00
11
1,
1%
#632500
1!
10
#635000
1"
0!
1/
00
01
0,
0%
#637500
1!
10
#640000
0$
0#
0"
0!
0.
0-
0/
00
#642500
1!
10
#645000
1"
0!
1/
00
#647500
1!
10
#650000
1#
0"
0!
1-
0/
00
#652500
1!
10
#655000
1"
0!
1/
00
#657500
1!
10
11
1,
1%
#660000
1$
0#
0"
0!
1.
0-
0/
00
#662500
1!
10
01
0,
0%
#665000
1"
0!
1/
00
#667500
1!
10
#670000
1#
0"
0!
1-
0/
00
11
1,
1%
#672500
1!
10
#675000
1"
0!
1/
00
01
0,
0%
#677500
1!
10
#680000
0$
0#
0"
0!
0.
0-
0/
00
#682500
1!
10
#685000
1"
0!
1/
00
#687500
1!
10
#690000
1#
0"
0!
1-
0/
00
#692500
1!
10
#695000
1"
0!
1/
00
#697500
1!
10
11
1,
1%
#700000
1$
0#
0"
0!
1.
0-
0/
00
#702500
1!
10
01
0,
0%
#705000
1"
0!
1/
00
#707500
1!
10
#710000
1#
0"
0!
1-
0/
00
11
1,
1%
#712500
1!
10
#715000
1"
0!
1/
00
01
0,
0%
#717500
1!
10
#720000
0$
0#
0"
0!
0.
0-
0/
00
#722500
1!
10
#725000
1"
0!
1/
00
#727500
1!
10
#730000
1#
0"
0!
1-
0/
00
#732500
1!
10
#735000
1"
0!
1/
00
#737500
1!
10
11
1,
1%
#740000
1$
0#
0"
0!
1.
0-
0/
00
#742500
1!
10
01
0,
0%
#745000
1"
0!
1/
00
#747500
1!
10
#750000
1#
0"
0!
1-
0/
00
11
1,
1%
#752500
1!
10
#755000
1"
0!
1/
00
01
0,
0%
#757500
1!
10
#760000
0$
0#
0"
0!
0.
0-
0/
00
#762500
1!
10
#765000
1"
0!
1/
00
#767500
1!
10
#770000
1#
0"
0!
1-
0/
00
#772500
1!
10
#775000
1"
0!
1/
00
#777500
1!
10
11
1,
1%
#780000
1$
0#
0"
0!
1.
0-
0/
00
#782500
1!
10
01
0,
0%
#785000
1"
0!
1/
00
#787500
1!
10
#790000
1#
0"
0!
1-
0/
00
11
1,
1%
#792500
1!
10
#795000
1"
0!
1/
00
01
0,
0%
#797500
1!
10
#800000
0$
0#
0"
0!
0.
0-
0/
00
#802500
1!
10
#805000
1"
0!
1/
00
#807500
1!
10
#810000
1#
0"
0!
1-
0/
00
#812500
1!
10
#815000
1"
0!
1/
00
#817500
1!
10
11
1,
1%
#820000
1$
0#
0"
0!
1.
0-
0/
00
#822500
1!
10
01
0,
0%
#825000
1"
0!
1/
00
#827500
1!
10
#830000
1#
0"
0!
1-
0/
00
11
1,
1%
#832500
1!
10
#835000
1"
0!
1/
00
01
0,
0%
#837500
1!
10
#840000
0$
0#
0"
0!
0.
0-
0/
00
#842500
1!
10
#845000
1"
0!
1/
00
#847500
1!
10
#850000
1#
0"
0!
1-
0/
00
#852500
1!
10
#855000
1"
0!
1/
00
#857500
1!
10
11
1,
1%
#860000
1$
0#
0"
0!
1.
0-
0/
00
#862500
1!
10
01
0,
0%
#865000
1"
0!
1/
00
#867500
1!
10
#870000
1#
0"
0!
1-
0/
00
11
1,
1%
#872500
1!
10
#875000
1"
0!
1/
00
01
0,
0%
#877500
1!
10
#880000
0$
0#
0"
0!
0.
0-
0/
00
#882500
1!
10
#885000
1"
0!
1/
00
#887500
1!
10
#890000
1#
0"
0!
1-
0/
00
#892500
1!
10
#895000
1"
0!
1/
00
#897500
1!
10
11
1,
1%
#900000
1$
0#
0"
0!
1.
0-
0/
00
#902500
1!
10
01
0,
0%
#905000
1"
0!
1/
00
#907500
1!
10
#910000
1#
0"
0!
1-
0/
00
11
1,
1%
#912500
1!
10
#915000
1"
0!
1/
00
01
0,
0%
#917500
1!
10
#920000
0$
0#
0"
0!
0.
0-
0/
00
#922500
1!
10
#925000
1"
0!
1/
00
#927500
1!
10
#930000
1#
0"
0!
1-
0/
00
#932500
1!
10
#935000
1"
0!
1/
00
#937500
1!
10
11
1,
1%
#940000
1$
0#
0"
0!
1.
0-
0/
00
#942500
1!
10
01
0,
0%
#945000
1"
0!
1/
00
#947500
1!
10
#950000
1#
0"
0!
1-
0/
00
11
1,
1%
#952500
1!
10
#955000
1"
0!
1/
00
01
0,
0%
#957500
1!
10
#960000
0$
0#
0"
0!
0.
0-
0/
00
#962500
1!
10
#965000
1"
0!
1/
00
#967500
1!
10
#970000
1#
0"
0!
1-
0/
00
#972500
1!
10
#975000
1"
0!
1/
00
#977500
1!
10
11
1,
1%
#980000
1$
0#
0"
0!
1.
0-
0/
00
#982500
1!
10
01
0,
0%
#985000
1"
0!
1/
00
#987500
1!
10
#990000
1#
0"
0!
1-
0/
00
11
1,
1%
#992500
1!
10
#995000
1"
0!
1/
00
01
0,
0%
#997500
1!
10
