simulation/qsim/ULA.msim.vcd
$comment
	File created using the following command:
		vcd file ULA.msim.vcd -direction
$end
$date
	Thu Jul 22 23:42:23 2021
$end
$version
	ModelSim Version 2020.1
$end
$timescale
	1ps
$end

$scope module conversor_completo_vlg_vec_tst $end
$var reg 1 ! E $end
$var reg 6 " F [5:0] $end
$var wire 1 # DIGITO1 [3] $end
$var wire 1 $ DIGITO1 [2] $end
$var wire 1 % DIGITO1 [1] $end
$var wire 1 & DIGITO1 [0] $end
$var wire 1 ' DIGITO2 [3] $end
$var wire 1 ( DIGITO2 [2] $end
$var wire 1 ) DIGITO2 [1] $end
$var wire 1 * DIGITO2 [0] $end

$scope module i1 $end
$var wire 1 + gnd $end
$var wire 1 , vcc $end
$var wire 1 - unknown $end
$var tri1 1 . devclrn $end
$var tri1 1 / devpor $end
$var tri1 1 0 devoe $end
$var wire 1 1 F[5]~input_o $end
$var wire 1 2 DIGITO1[3]~output_o $end
$var wire 1 3 DIGITO1[2]~output_o $end
$var wire 1 4 DIGITO1[1]~output_o $end
$var wire 1 5 DIGITO1[0]~output_o $end
$var wire 1 6 DIGITO2[3]~output_o $end
$var wire 1 7 DIGITO2[2]~output_o $end
$var wire 1 8 DIGITO2[1]~output_o $end
$var wire 1 9 DIGITO2[0]~output_o $end
$var wire 1 : E~input_o $end
$var wire 1 ; F[3]~input_o $end
$var wire 1 < F[1]~input_o $end
$var wire 1 = inst2|mux2x1_2|or_mux~0_combout $end
$var wire 1 > F[2]~input_o $end
$var wire 1 ? F[4]~input_o $end
$var wire 1 @ inst|mux2x1_4|and_mux_1~0_combout $end
$var wire 1 A inst2|mux2x1_1|or_mux~0_combout $end
$var wire 1 B inst2|mux2x1_1|or_mux~1_combout $end
$var wire 1 C inst2|mux2x1_2|or_mux~1_combout $end
$var wire 1 D inst11|inst6|inst1~combout $end
$var wire 1 E inst2|mux2x1_2|or_mux~2_combout $end
$var wire 1 F inst2|mux2x1_3|or_mux~0_combout $end
$var wire 1 G F[0]~input_o $end
$upscope $end
$upscope $end
$enddefinitions $end
#0
$dumpvars
1!
b0 "
1&
0%
0$
0#
0*
1)
0(
0'
0+
1,
x-
1.
1/
10
01
02
03
04
15
06
07
18
09
1:
0;
0<
0=
0>
0?
1@
0A
0B
0C
0D
0E
1F
0G
$end
#1000
b1 "
1G
19
1*
#2000
b11 "
b10 "
1<
0G
09
1A
0*
0F
08
0)
#3000
b11 "
1G
19
1*
#4000
b111 "
b101 "
b100 "
0<
1>
0G
09
0A
0*
1F
18
1)
#5000
b101 "
1G
19
1*
#6000
b111 "
b110 "
1<
0G
09
1C
0*
0F
08
0)
1E
17
1(
#7000
b111 "
1G
19
1*
#8000
b1111 "
b1011 "
b1001 "
b1000 "
0<
0>
1;
0G
09
0C
0*
1F
18
1)
0E
07
0(
#9000
b1001 "
1G
19
1*
#10000
b1011 "
b1010 "
1<
0G
09
1=
0*
0F
08
0)
1E
17
1(
#11000
b1011 "
1G
19
1*
#12000
b1111 "
b1101 "
b1100 "
0<
1>
0G
09
1A
0=
0*
1F
18
1)
0E
07
0(
#13000
b1101 "
1G
19
1*
#14000
b1111 "
b1110 "
1<
0G
09
1C
0A
1=
0*
0F
08
0)
1E
17
1(
#15000
b1111 "
1G
19
1*
#16000
b11111 "
b10111 "
b10011 "
b10001 "
b10000 "
0<
0>
0;
1?
0G
09
0C
0=
0*
1F
0@
05
18
1)
0&
0E
07
0(
#17000
b10001 "
1G
19
1*
#18000
b10011 "
b10010 "
1<
0G
09
1A
0*
0F
08
0)
1B
16
1'
#19000
b10011 "
1G
19
1*
#20000
b10111 "
b10101 "
b10100 "
0<
1>
0G
09
0A
0*
1F
18
1)
0B
06
0'
#21000
b10101 "
1G
19
1*
#22000
b10111 "
b10110 "
1<
0G
09
0*
0F
08
0)
#23000
b10111 "
1G
19
1*
#24000
b11111 "
b11011 "
b11001 "
b11000 "
0<
0>
1;
0G
09
1D
0*
1F
18
1)
1E
17
1(
#25000
b11001 "
1G
19
1*
#26000
b11011 "
b11010 "
1<
0G
09
1=
0*
#27000
b11011 "
1G
19
1*
#28000
b11111 "
b11101 "
b11100 "
0<
1>
0G
09
1A
0=
0D
0*
1@
15
1&
1B
0E
0@
05
07
16
1'
0(
0&
#29000
b11101 "
1G
19
1*
#30000
b11111 "
b11110 "
1<
0G
09
0A
1=
0*
0F
08
0)
0B
1E
1@
15
17
06
0'
1(
1&
#31000
b11111 "
1G
19
1*
#32000
b111111 "
b101111 "
b100111 "
b100011 "
b100001 "
b100000 "
0<
0>
0;
0?
11
0G
09
0=
0*
1F
18
1)
0E
07
0(
#33000
b100001 "
1G
19
1*
#34000
b100011 "
b100010 "
1<
0G
09
1A
0*
0F
08
0)
#35000
b100011 "
1G
19
1*
#36000
b100111 "
b100101 "
b100100 "
0<
1>
0G
09
0A
0*
1F
18
1)
#37000
b100101 "
1G
19
1*
#38000
b100111 "
b100110 "
1<
0G
09
1C
0*
0F
08
0)
1E
17
1(
#39000
b100111 "
1G
19
1*
#40000
b101111 "
b101011 "
b101001 "
b101000 "
0<
0>
1;
0G
09
0C
0*
1F
18
1)
0E
07
0(
#41000
b101001 "
1G
19
1*
#42000
b101011 "
b101010 "
1<
0G
09
1=
0*
0F
08
0)
1E
17
1(
#43000
b101011 "
1G
19
1*
#44000
b101111 "
b101101 "
b101100 "
0<
1>
0G
09
1A
0=
0*
1F
18
1)
0E
07
0(
#45000
b101101 "
1G
19
1*
#46000
b101111 "
b101110 "
1<
0G
09
1C
0A
1=
0*
0F
08
0)
1E
17
1(
#47000
b101111 "
1G
19
1*
#48000
b111111 "
b110111 "
b110011 "
b110001 "
b110000 "
0<
0>
0;
1?
0G
09
0C
0=
0*
1F
0@
05
18
1)
0&
0E
07
0(
#49000
b110001 "
1G
19
1*
#50000
b110011 "
b110010 "
1<
0G
09
1A
0*
0F
08
0)
1B
16
1'
#51000
b110011 "
1G
19
1*
#52000
b110111 "
b110101 "
b110100 "
0<
1>
0G
09
0A
0*
1F
18
1)
0B
06
0'
#53000
b110101 "
1G
19
1*
#54000
b110111 "
b110110 "
1<
0G
09
0*
0F
08
0)
#55000
b110111 "
1G
19
1*
#56000
b111111 "
b111011 "
b111001 "
b111000 "
0<
0>
1;
0G
09
1D
0*
1F
18
1)
1E
17
1(
#57000
b111001 "
1G
19
1*
#58000
b111011 "
b111010 "
1<
0G
09
1=
0*
#59000
b111011 "
1G
19
1*
#60000
b111111 "
b111101 "
b111100 "
0<
1>
0G
09
1A
0=
0D
0*
1@
15
1&
1B
0E
0@
05
07
16
1'
0(
0&
#61000
b111101 "
1G
19
1*
#62000
b111111 "
b111110 "
1<
0G
09
0A
1=
0*
0F
08
0)
0B
1E
1@
15
17
06
0'
1(
1&
#63000
b111111 "
1G
19
1*
#64000
b11111 "
b1111 "
b111 "
b11 "
b1 "
b0 "
0<
0>
0;
0?
01
0G
09
0=
0*
1F
18
1)
0E
07
0(
#65000
b1 "
1G
19
1*
#66000
b11 "
b10 "
1<
0G
09
1A
0*
0F
08
0)
#67000
b11 "
1G
19
1*
#68000
b111 "
b101 "
b100 "
0<
1>
0G
09
0A
0*
1F
18
1)
#69000
b101 "
1G
19
1*
#70000
b111 "
b110 "
1<
0G
09
1C
0*
0F
08
0)
1E
17
1(
#71000
b111 "
1G
19
1*
#72000
b1111 "
b1011 "
b1001 "
b1000 "
0<
0>
1;
0G
09
0C
0*
1F
18
1)
0E
07
0(
#73000
b1001 "
1G
19
1*
#74000
b1011 "
b1010 "
1<
0G
09
1=
0*
0F
08
0)
1E
17
1(
#75000
b1011 "
1G
19
1*
#76000
b1111 "
b1101 "
b1100 "
0<
1>
0G
09
1A
0=
0*
1F
18
1)
0E
07
0(
#77000
b1101 "
1G
19
1*
#78000
b1111 "
b1110 "
1<
0G
09
1C
0A
1=
0*
0F
08
0)
1E
17
1(
#79000
b1111 "
1G
19
1*
#80000
b11111 "
b10111 "
b10011 "
b10001 "
b10000 "
0<
0>
0;
1?
0G
09
0C
0=
0*
1F
0@
05
18
1)
0&
0E
07
0(
#81000
b10001 "
1G
19
1*
#82000
b10011 "
b10010 "
1<
0G
09
1A
0*
0F
08
0)
1B
16
1'
#83000
b10011 "
1G
19
1*
#84000
b10111 "
b10101 "
b10100 "
0<
1>
0G
09
0A
0*
1F
18
1)
0B
06
0'
#85000
b10101 "
1G
19
1*
#86000
b10111 "
b10110 "
1<
0G
09
0*
0F
08
0)
#87000
b10111 "
1G
19
1*
#88000
b11111 "
b11011 "
b11001 "
b11000 "
0<
0>
1;
0G
09
1D
0*
1F
18
1)
1E
17
1(
#89000
b11001 "
1G
19
1*
#90000
b11011 "
b11010 "
1<
0G
09
1=
0*
#91000
b11011 "
1G
19
1*
#92000
b11111 "
b11101 "
b11100 "
0<
1>
0G
09
1A
0=
0D
0*
1@
15
1&
1B
0E
0@
05
07
16
1'
0(
0&
#93000
b11101 "
1G
19
1*
#94000
b11111 "
b11110 "
1<
0G
09
0A
1=
0*
0F
08
0)
0B
1E
1@
15
17
06
0'
1(
1&
#95000
b11111 "
1G
19
1*
#96000
b111111 "
b101111 "
b100111 "
b100011 "
b100001 "
b100000 "
0<
0>
0;
0?
11
0G
09
0=
0*
1F
18
1)
0E
07
0(
#97000
b100001 "
1G
19
1*
#98000
b100011 "
b100010 "
1<
0G
09
1A
0*
0F
08
0)
#99000
b100011 "
1G
19
1*
#100000
b100111 "
b100101 "
b100100 "
0<
1>
0G
09
0A
0*
1F
18
1)
#101000
b100101 "
1G
19
1*
#102000
b100111 "
b100110 "
1<
0G
09
1C
0*
0F
08
0)
1E
17
1(
#103000
b100111 "
1G
19
1*
#104000
b101111 "
b101011 "
b101001 "
b101000 "
0<
0>
1;
0G
09
0C
0*
1F
18
1)
0E
07
0(
#105000
b101001 "
1G
19
1*
#106000
b101011 "
b101010 "
1<
0G
09
1=
0*
0F
08
0)
1E
17
1(
#107000
b101011 "
1G
19
1*
#108000
b101111 "
b101101 "
b101100 "
0<
1>
0G
09
1A
0=
0*
1F
18
1)
0E
07
0(
#109000
b101101 "
1G
19
1*
#110000
b101111 "
b101110 "
1<
0G
09
1C
0A
1=
0*
0F
08
0)
1E
17
1(
#111000
b101111 "
1G
19
1*
#112000
b111111 "
b110111 "
b110011 "
b110001 "
b110000 "
0<
0>
0;
1?
0G
09
0C
0=
0*
1F
0@
05
18
1)
0&
0E
07
0(
#113000
b110001 "
1G
19
1*
#114000
b110011 "
b110010 "
1<
0G
09
1A
0*
0F
08
0)
1B
16
1'
#115000
b110011 "
1G
19
1*
#116000
b110111 "
b110101 "
b110100 "
0<
1>
0G
09
0A
0*
1F
18
1)
0B
06
0'
#117000
b110101 "
1G
19
1*
#118000
b110111 "
b110110 "
1<
0G
09
0*
0F
08
0)
#119000
b110111 "
1G
19
1*
#120000
b111111 "
b111011 "
b111001 "
b111000 "
0<
0>
1;
0G
09
1D
0*
1F
18
1)
1E
17
1(
#121000
b111001 "
1G
19
1*
#122000
b111011 "
b111010 "
1<
0G
09
1=
0*
#123000
b111011 "
1G
19
1*
#124000
b111111 "
b111101 "
b111100 "
0<
1>
0G
09
1A
0=
0D
0*
1@
15
1&
1B
0E
0@
05
07
16
1'
0(
0&
#125000
b111101 "
1G
19
1*
#126000
b111111 "
b111110 "
1<
0G
09
0A
1=
0*
0F
08
0)
0B
1E
1@
15
17
06
0'
1(
1&
#127000
b111111 "
1G
19
1*
#128000
b11111 "
b1111 "
b111 "
b11 "
b1 "
b0 "
0<
0>
0;
0?
01
0G
09
0=
0*
1F
18
1)
0E
07
0(
#129000
b1 "
1G
19
1*
#130000
b11 "
b10 "
1<
0G
09
1A
0*
0F
08
0)
#131000
b11 "
1G
19
1*
#132000
b111 "
b101 "
b100 "
0<
1>
0G
09
0A
0*
1F
18
1)
#133000
b101 "
1G
19
1*
#134000
b111 "
b110 "
1<
0G
09
1C
0*
0F
08
0)
1E
17
1(
#135000
b111 "
1G
19
1*
#136000
b1111 "
b1011 "
b1001 "
b1000 "
0<
0>
1;
0G
09
0C
0*
1F
18
1)
0E
07
0(
#137000
b1001 "
1G
19
1*
#138000
b1011 "
b1010 "
1<
0G
09
1=
0*
0F
08
0)
1E
17
1(
#139000
b1011 "
1G
19
1*
#140000
b1111 "
b1101 "
b1100 "
0<
1>
0G
09
1A
0=
0*
1F
18
1)
0E
07
0(
#141000
b1101 "
1G
19
1*
#142000
b1111 "
b1110 "
1<
0G
09
1C
0A
1=
0*
0F
08
0)
1E
17
1(
#143000
b1111 "
1G
19
1*
#144000
b11111 "
b10111 "
b10011 "
b10001 "
b10000 "
0<
0>
0;
1?
0G
09
0C
0=
0*
1F
0@
05
18
1)
0&
0E
07
0(
#145000
b10001 "
1G
19
1*
#146000
b10011 "
b10010 "
1<
0G
09
1A
0*
0F
08
0)
1B
16
1'
#147000
b10011 "
1G
19
1*
#148000
b10111 "
b10101 "
b10100 "
0<
1>
0G
09
0A
0*
1F
18
1)
0B
06
0'
#149000
b10101 "
1G
19
1*
#150000
b10111 "
b10110 "
1<
0G
09
0*
0F
08
0)
#151000
b10111 "
1G
19
1*
#152000
b11111 "
b11011 "
b11001 "
b11000 "
0<
0>
1;
0G
09
1D
0*
1F
18
1)
1E
17
1(
#153000
b11001 "
1G
19
1*
#154000
b11011 "
b11010 "
1<
0G
09
1=
0*
#155000
b11011 "
1G
19
1*
#156000
b11111 "
b11101 "
b11100 "
0<
1>
0G
09
1A
0=
0D
0*
1@
15
1&
1B
0E
0@
05
07
16
1'
0(
0&
#157000
b11101 "
1G
19
1*
#158000
b11111 "
b11110 "
1<
0G
09
0A
1=
0*
0F
08
0)
0B
1E
1@
15
17
06
0'
1(
1&
#159000
b11111 "
1G
19
1*
#160000
b111111 "
b101111 "
b100111 "
b100011 "
b100001 "
b100000 "
0<
0>
0;
0?
11
0G
09
0=
0*
1F
18
1)
0E
07
0(
#161000
b100001 "
1G
19
1*
#162000
b100011 "
b100010 "
1<
0G
09
1A
0*
0F
08
0)
#163000
b100011 "
1G
19
1*
#164000
b100111 "
b100101 "
b100100 "
0<
1>
0G
09
0A
0*
1F
18
1)
#165000
b100101 "
1G
19
1*
#166000
b100111 "
b100110 "
1<
0G
09
1C
0*
0F
08
0)
1E
17
1(
#167000
b100111 "
1G
19
1*
#168000
b101111 "
b101011 "
b101001 "
b101000 "
0<
0>
1;
0G
09
0C
0*
1F
18
1)
0E
07
0(
#169000
b101001 "
1G
19
1*
#170000
b101011 "
b101010 "
1<
0G
09
1=
0*
0F
08
0)
1E
17
1(
#171000
b101011 "
1G
19
1*
#172000
b101111 "
b101101 "
b101100 "
0<
1>
0G
09
1A
0=
0*
1F
18
1)
0E
07
0(
#173000
b101101 "
1G
19
1*
#174000
b101111 "
b101110 "
1<
0G
09
1C
0A
1=
0*
0F
08
0)
1E
17
1(
#175000
b101111 "
1G
19
1*
#176000
b111111 "
b110111 "
b110011 "
b110001 "
b110000 "
0<
0>
0;
1?
0G
09
0C
0=
0*
1F
0@
05
18
1)
0&
0E
07
0(
#177000
b110001 "
1G
19
1*
#178000
b110011 "
b110010 "
1<
0G
09
1A
0*
0F
08
0)
1B
16
1'
#179000
b110011 "
1G
19
1*
#180000
b110111 "
b110101 "
b110100 "
0<
1>
0G
09
0A
0*
1F
18
1)
0B
06
0'
#181000
b110101 "
1G
19
1*
#182000
b110111 "
b110110 "
1<
0G
09
0*
0F
08
0)
#183000
b110111 "
1G
19
1*
#184000
b111111 "
b111011 "
b111001 "
b111000 "
0<
0>
1;
0G
09
1D
0*
1F
18
1)
1E
17
1(
#185000
b111001 "
1G
19
1*
#186000
b111011 "
b111010 "
1<
0G
09
1=
0*
#187000
b111011 "
1G
19
1*
#188000
b111111 "
b111101 "
b111100 "
0<
1>
0G
09
1A
0=
0D
0*
1@
15
1&
1B
0E
0@
05
07
16
1'
0(
0&
#189000
b111101 "
1G
19
1*
#190000
b111111 "
b111110 "
1<
0G
09
0A
1=
0*
0F
08
0)
0B
1E
1@
15
17
06
0'
1(
1&
#191000
b111111 "
1G
19
1*
#192000
b11111 "
b1111 "
b111 "
b11 "
b1 "
b0 "
0<
0>
0;
0?
01
0G
09
0=
0*
1F
18
1)
0E
07
0(
#193000
b1 "
1G
19
1*
#194000
b11 "
b10 "
1<
0G
09
1A
0*
0F
08
0)
#195000
b11 "
1G
19
1*
#196000
b111 "
b101 "
b100 "
0<
1>
0G
09
0A
0*
1F
18
1)
#197000
b101 "
1G
19
1*
#198000
b111 "
b110 "
1<
0G
09
1C
0*
0F
08
0)
1E
17
1(
#199000
b111 "
1G
19
1*
#200000
b1111 "
b1011 "
b1001 "
b1000 "
0<
0>
1;
0G
09
0C
0*
1F
18
1)
0E
07
0(
#201000
b1001 "
1G
19
1*
#202000
b1011 "
b1010 "
1<
0G
09
1=
0*
0F
08
0)
1E
17
1(
#203000
b1011 "
1G
19
1*
#204000
b1111 "
b1101 "
b1100 "
0<
1>
0G
09
1A
0=
0*
1F
18
1)
0E
07
0(
#205000
b1101 "
1G
19
1*
#206000
b1111 "
b1110 "
1<
0G
09
1C
0A
1=
0*
0F
08
0)
1E
17
1(
#207000
b1111 "
1G
19
1*
#208000
b11111 "
b10111 "
b10011 "
b10001 "
b10000 "
0<
0>
0;
1?
0G
09
0C
0=
0*
1F
0@
05
18
1)
0&
0E
07
0(
#209000
b10001 "
1G
19
1*
#210000
b10011 "
b10010 "
1<
0G
09
1A
0*
0F
08
0)
1B
16
1'
#211000
b10011 "
1G
19
1*
#212000
b10111 "
b10101 "
b10100 "
0<
1>
0G
09
0A
0*
1F
18
1)
0B
06
0'
#213000
b10101 "
1G
19
1*
#214000
b10111 "
b10110 "
1<
0G
09
0*
0F
08
0)
#215000
b10111 "
1G
19
1*
#216000
b11111 "
b11011 "
b11001 "
b11000 "
0<
0>
1;
0G
09
1D
0*
1F
18
1)
1E
17
1(
#217000
b11001 "
1G
19
1*
#218000
b11011 "
b11010 "
1<
0G
09
1=
0*
#219000
b11011 "
1G
19
1*
#220000
b11111 "
b11101 "
b11100 "
0<
1>
0G
09
1A
0=
0D
0*
1@
15
1&
1B
0E
0@
05
07
16
1'
0(
0&
#221000
b11101 "
1G
19
1*
#222000
b11111 "
b11110 "
1<
0G
09
0A
1=
0*
0F
08
0)
0B
1E
1@
15
17
06
0'
1(
1&
#223000
b11111 "
1G
19
1*
#224000
b111111 "
b101111 "
b100111 "
b100011 "
b100001 "
b100000 "
0<
0>
0;
0?
11
0G
09
0=
0*
1F
18
1)
0E
07
0(
#225000
b100001 "
1G
19
1*
#226000
b100011 "
b100010 "
1<
0G
09
1A
0*
0F
08
0)
#227000
b100011 "
1G
19
1*
#228000
b100111 "
b100101 "
b100100 "
0<
1>
0G
09
0A
0*
1F
18
1)
#229000
b100101 "
1G
19
1*
#230000
b100111 "
b100110 "
1<
0G
09
1C
0*
0F
08
0)
1E
17
1(
#231000
b100111 "
1G
19
1*
#232000
b101111 "
b101011 "
b101001 "
b101000 "
0<
0>
1;
0G
09
0C
0*
1F
18
1)
0E
07
0(
#233000
b101001 "
1G
19
1*
#234000
b101011 "
b101010 "
1<
0G
09
1=
0*
0F
08
0)
1E
17
1(
#235000
b101011 "
1G
19
1*
#236000
b101111 "
b101101 "
b101100 "
0<
1>
0G
09
1A
0=
0*
1F
18
1)
0E
07
0(
#237000
b101101 "
1G
19
1*
#238000
b101111 "
b101110 "
1<
0G
09
1C
0A
1=
0*
0F
08
0)
1E
17
1(
#239000
b101111 "
1G
19
1*
#240000
b111111 "
b110111 "
b110011 "
b110001 "
b110000 "
0<
0>
0;
1?
0G
09
0C
0=
0*
1F
0@
05
18
1)
0&
0E
07
0(
#241000
b110001 "
1G
19
1*
#242000
b110011 "
b110010 "
1<
0G
09
1A
0*
0F
08
0)
1B
16
1'
#243000
b110011 "
1G
19
1*
#244000
b110111 "
b110101 "
b110100 "
0<
1>
0G
09
0A
0*
1F
18
1)
0B
06
0'
#245000
b110101 "
1G
19
1*
#246000
b110111 "
b110110 "
1<
0G
09
0*
0F
08
0)
#247000
b110111 "
1G
19
1*
#248000
b111111 "
b111011 "
b111001 "
b111000 "
0<
0>
1;
0G
09
1D
0*
1F
18
1)
1E
17
1(
#249000
b111001 "
1G
19
1*
#250000
b111011 "
b111010 "
1<
0G
09
1=
0*
#251000
b111011 "
1G
19
1*
#252000
b111111 "
b111101 "
b111100 "
0<
1>
0G
09
1A
0=
0D
0*
1@
15
1&
1B
0E
0@
05
07
16
1'
0(
0&
#253000
b111101 "
1G
19
1*
#254000
b111111 "
b111110 "
1<
0G
09
0A
1=
0*
0F
08
0)
0B
1E
1@
15
17
06
0'
1(
1&
#255000
b111111 "
1G
19
1*
#256000
b11111 "
b1111 "
b111 "
b11 "
b1 "
b0 "
0<
0>
0;
0?
01
0G
09
0=
0*
1F
18
1)
0E
07
0(
#257000
b1 "
1G
19
1*
#258000
b11 "
b10 "
1<
0G
09
1A
0*
0F
08
0)
#259000
b11 "
1G
19
1*
#260000
b111 "
b101 "
b100 "
0<
1>
0G
09
0A
0*
1F
18
1)
#261000
b101 "
1G
19
1*
#262000
b111 "
b110 "
1<
0G
09
1C
0*
0F
08
0)
1E
17
1(
#263000
b111 "
1G
19
1*
#264000
b1111 "
b1011 "
b1001 "
b1000 "
0<
0>
1;
0G
09
0C
0*
1F
18
1)
0E
07
0(
#265000
b1001 "
1G
19
1*
#266000
b1011 "
b1010 "
1<
0G
09
1=
0*
0F
08
0)
1E
17
1(
#267000
b1011 "
1G
19
1*
#268000
b1111 "
b1101 "
b1100 "
0<
1>
0G
09
1A
0=
0*
1F
18
1)
0E
07
0(
#269000
b1101 "
1G
19
1*
#270000
b1111 "
b1110 "
1<
0G
09
1C
0A
1=
0*
0F
08
0)
1E
17
1(
#271000
b1111 "
1G
19
1*
#272000
b11111 "
b10111 "
b10011 "
b10001 "
b10000 "
0<
0>
0;
1?
0G
09
0C
0=
0*
1F
0@
05
18
1)
0&
0E
07
0(
#273000
b10001 "
1G
19
1*
#274000
b10011 "
b10010 "
1<
0G
09
1A
0*
0F
08
0)
1B
16
1'
#275000
b10011 "
1G
19
1*
#276000
b10111 "
b10101 "
b10100 "
0<
1>
0G
09
0A
0*
1F
18
1)
0B
06
0'
#277000
b10101 "
1G
19
1*
#278000
b10111 "
b10110 "
1<
0G
09
0*
0F
08
0)
#279000
b10111 "
1G
19
1*
#280000
b11111 "
b11011 "
b11001 "
b11000 "
0<
0>
1;
0G
09
1D
0*
1F
18
1)
1E
17
1(
#281000
b11001 "
1G
19
1*
#282000
b11011 "
b11010 "
1<
0G
09
1=
0*
#283000
b11011 "
1G
19
1*
#284000
b11111 "
b11101 "
b11100 "
0<
1>
0G
09
1A
0=
0D
0*
1@
15
1&
1B
0E
0@
05
07
16
1'
0(
0&
#285000
b11101 "
1G
19
1*
#286000
b11111 "
b11110 "
1<
0G
09
0A
1=
0*
0F
08
0)
0B
1E
1@
15
17
06
0'
1(
1&
#287000
b11111 "
1G
19
1*
#288000
b111111 "
b101111 "
b100111 "
b100011 "
b100001 "
b100000 "
0<
0>
0;
0?
11
0G
09
0=
0*
1F
18
1)
0E
07
0(
#289000
b100001 "
1G
19
1*
#290000
b100011 "
b100010 "
1<
0G
09
1A
0*
0F
08
0)
#291000
b100011 "
1G
19
1*
#292000
b100111 "
b100101 "
b100100 "
0<
1>
0G
09
0A
0*
1F
18
1)
#293000
b100101 "
1G
19
1*
#294000
b100111 "
b100110 "
1<
0G
09
1C
0*
0F
08
0)
1E
17
1(
#295000
b100111 "
1G
19
1*
#296000
b101111 "
b101011 "
b101001 "
b101000 "
0<
0>
1;
0G
09
0C
0*
1F
18
1)
0E
07
0(
#297000
b101001 "
1G
19
1*
#298000
b101011 "
b101010 "
1<
0G
09
1=
0*
0F
08
0)
1E
17
1(
#299000
b101011 "
1G
19
1*
#300000
b101111 "
b101101 "
b101100 "
0<
1>
0G
09
1A
0=
0*
1F
18
1)
0E
07
0(
#301000
b101101 "
1G
19
1*
#302000
b101111 "
b101110 "
1<
0G
09
1C
0A
1=
0*
0F
08
0)
1E
17
1(
#303000
b101111 "
1G
19
1*
#304000
b111111 "
b110111 "
b110011 "
b110001 "
b110000 "
0<
0>
0;
1?
0G
09
0C
0=
0*
1F
0@
05
18
1)
0&
0E
07
0(
#305000
b110001 "
1G
19
1*
#306000
b110011 "
b110010 "
1<
0G
09
1A
0*
0F
08
0)
1B
16
1'
#307000
b110011 "
1G
19
1*
#308000
b110111 "
b110101 "
b110100 "
0<
1>
0G
09
0A
0*
1F
18
1)
0B
06
0'
#309000
b110101 "
1G
19
1*
#310000
b110111 "
b110110 "
1<
0G
09
0*
0F
08
0)
#311000
b110111 "
1G
19
1*
#312000
b111111 "
b111011 "
b111001 "
b111000 "
0<
0>
1;
0G
09
1D
0*
1F
18
1)
1E
17
1(
#313000
b111001 "
1G
19
1*
#314000
b111011 "
b111010 "
1<
0G
09
1=
0*
#315000
b111011 "
1G
19
1*
#316000
b111111 "
b111101 "
b111100 "
0<
1>
0G
09
1A
0=
0D
0*
1@
15
1&
1B
0E
0@
05
07
16
1'
0(
0&
#317000
b111101 "
1G
19
1*
#318000
b111111 "
b111110 "
1<
0G
09
0A
1=
0*
0F
08
0)
0B
1E
1@
15
17
06
0'
1(
1&
#319000
b111111 "
1G
19
1*
#320000
b11111 "
b1111 "
b111 "
b11 "
b1 "
b0 "
0<
0>
0;
0?
01
0G
09
0=
0*
1F
18
1)
0E
07
0(
#321000
b1 "
1G
19
1*
#322000
b11 "
b10 "
1<
0G
09
1A
0*
0F
08
0)
#323000
b11 "
1G
19
1*
#324000
b111 "
b101 "
b100 "
0<
1>
0G
09
0A
0*
1F
18
1)
#325000
b101 "
1G
19
1*
#326000
b111 "
b110 "
1<
0G
09
1C
0*
0F
08
0)
1E
17
1(
#327000
b111 "
1G
19
1*
#328000
b1111 "
b1011 "
b1001 "
b1000 "
0<
0>
1;
0G
09
0C
0*
1F
18
1)
0E
07
0(
#329000
b1001 "
1G
19
1*
#330000
b1011 "
b1010 "
1<
0G
09
1=
0*
0F
08
0)
1E
17
1(
#331000
b1011 "
1G
19
1*
#332000
b1111 "
b1101 "
b1100 "
0<
1>
0G
09
1A
0=
0*
1F
18
1)
0E
07
0(
#333000
b1101 "
1G
19
1*
#334000
b1111 "
b1110 "
1<
0G
09
1C
0A
1=
0*
0F
08
0)
1E
17
1(
#335000
b1111 "
1G
19
1*
#336000
b11111 "
b10111 "
b10011 "
b10001 "
b10000 "
0<
0>
0;
1?
0G
09
0C
0=
0*
1F
0@
05
18
1)
0&
0E
07
0(
#337000
b10001 "
1G
19
1*
#338000
b10011 "
b10010 "
1<
0G
09
1A
0*
0F
08
0)
1B
16
1'
#339000
b10011 "
1G
19
1*
#340000
b10111 "
b10101 "
b10100 "
0<
1>
0G
09
0A
0*
1F
18
1)
0B
06
0'
#341000
b10101 "
1G
19
1*
#342000
b10111 "
b10110 "
1<
0G
09
0*
0F
08
0)
#343000
b10111 "
1G
19
1*
#344000
b11111 "
b11011 "
b11001 "
b11000 "
0<
0>
1;
0G
09
1D
0*
1F
18
1)
1E
17
1(
#345000
b11001 "
1G
19
1*
#346000
b11011 "
b11010 "
1<
0G
09
1=
0*
#347000
b11011 "
1G
19
1*
#348000
b11111 "
b11101 "
b11100 "
0<
1>
0G
09
1A
0=
0D
0*
1@
15
1&
1B
0E
0@
05
07
16
1'
0(
0&
#349000
b11101 "
1G
19
1*
#350000
b11111 "
b11110 "
1<
0G
09
0A
1=
0*
0F
08
0)
0B
1E
1@
15
17
06
0'
1(
1&
#351000
b11111 "
1G
19
1*
#352000
b111111 "
b101111 "
b100111 "
b100011 "
b100001 "
b100000 "
0<
0>
0;
0?
11
0G
09
0=
0*
1F
18
1)
0E
07
0(
#353000
b100001 "
1G
19
1*
#354000
b100011 "
b100010 "
1<
0G
09
1A
0*
0F
08
0)
#355000
b100011 "
1G
19
1*
#356000
b100111 "
b100101 "
b100100 "
0<
1>
0G
09
0A
0*
1F
18
1)
#357000
b100101 "
1G
19
1*
#358000
b100111 "
b100110 "
1<
0G
09
1C
0*
0F
08
0)
1E
17
1(
#359000
b100111 "
1G
19
1*
#360000
b101111 "
b101011 "
b101001 "
b101000 "
0<
0>
1;
0G
09
0C
0*
1F
18
1)
0E
07
0(
#361000
b101001 "
1G
19
1*
#362000
b101011 "
b101010 "
1<
0G
09
1=
0*
0F
08
0)
1E
17
1(
#363000
b101011 "
1G
19
1*
#364000
b101111 "
b101101 "
b101100 "
0<
1>
0G
09
1A
0=
0*
1F
18
1)
0E
07
0(
#365000
b101101 "
1G
19
1*
#366000
b101111 "
b101110 "
1<
0G
09
1C
0A
1=
0*
0F
08
0)
1E
17
1(
#367000
b101111 "
1G
19
1*
#368000
b111111 "
b110111 "
b110011 "
b110001 "
b110000 "
0<
0>
0;
1?
0G
09
0C
0=
0*
1F
0@
05
18
1)
0&
0E
07
0(
#369000
b110001 "
1G
19
1*
#370000
b110011 "
b110010 "
1<
0G
09
1A
0*
0F
08
0)
1B
16
1'
#371000
b110011 "
1G
19
1*
#372000
b110111 "
b110101 "
b110100 "
0<
1>
0G
09
0A
0*
1F
18
1)
0B
06
0'
#373000
b110101 "
1G
19
1*
#374000
b110111 "
b110110 "
1<
0G
09
0*
0F
08
0)
#375000
b110111 "
1G
19
1*
#376000
b111111 "
b111011 "
b111001 "
b111000 "
0<
0>
1;
0G
09
1D
0*
1F
18
1)
1E
17
1(
#377000
b111001 "
1G
19
1*
#378000
b111011 "
b111010 "
1<
0G
09
1=
0*
#379000
b111011 "
1G
19
1*
