simulation/qsim/ULA.msim.vcd
$comment
	File created using the following command:
		vcd file ULA.msim.vcd -direction
$end
$date
	Thu Jul 22 17:15:05 2021
$end
$version
	ModelSim Version 2020.1
$end
$timescale
	1ps
$end

$scope module SEM_ENABLE_vlg_vec_tst $end
$var reg 4 ! X [3:0] $end
$var reg 6 " Y [5:0] $end
$var wire 1 # a $end
$var wire 1 $ b $end
$var wire 1 % c $end
$var wire 1 & d $end
$var wire 1 ' e $end
$var wire 1 ( f $end
$var wire 1 ) g $end

$scope module i1 $end
$var wire 1 * gnd $end
$var wire 1 + vcc $end
$var wire 1 , unknown $end
$var tri1 1 - devclrn $end
$var tri1 1 . devpor $end
$var tri1 1 / devoe $end
$var wire 1 0 Y[5]~input_o $end
$var wire 1 1 Y[0]~input_o $end
$var wire 1 2 g~output_o $end
$var wire 1 3 f~output_o $end
$var wire 1 4 a~output_o $end
$var wire 1 5 b~output_o $end
$var wire 1 6 c~output_o $end
$var wire 1 7 d~output_o $end
$var wire 1 8 e~output_o $end
$var wire 1 9 X[0]~input_o $end
$var wire 1 : X[3]~input_o $end
$var wire 1 ; X[2]~input_o $end
$var wire 1 < X[1]~input_o $end
$var wire 1 = inst9~0_combout $end
$var wire 1 > Y[1]~input_o $end
$var wire 1 ? Y[4]~input_o $end
$var wire 1 @ Y[3]~input_o $end
$var wire 1 A Y[2]~input_o $end
$var wire 1 B inst10|inst4|inst2~0_combout $end
$var wire 1 C inst9~1_combout $end
$var wire 1 D inst8~0_combout $end
$var wire 1 E seg_G|and_G_2~0_combout $end
$var wire 1 F seg_C|AND_C~0_combout $end
$var wire 1 G inst~combout $end
$var wire 1 H inst4~0_combout $end
$var wire 1 I inst5~combout $end
$var wire 1 J inst6~0_combout $end
$var wire 1 K inst6~1_combout $end
$var wire 1 L inst7~combout $end
$upscope $end
$upscope $end
$enddefinitions $end
#0
$dumpvars
b1 !
b111 "
0#
1$
1%
0&
0'
0(
0)
0*
1+
x,
1-
1.
1/
00
11
02
03
04
15
16
07
08
19
0:
0;
0<
1=
1>
0?
0@
1A
0B
1C
1D
1E
0F
1G
0H
0I
0J
1K
1L
$end
#10000
b1111 "
b1011 "
b1010 "
01
0A
1@
1B
1I
1H
05
06
0%
0$
#20000
b0 !
b101010 "
b111010 "
b110010 "
b110011 "
11
0@
1?
10
09
#30000
b1000 !
b1100 !
b1110 !
b110001 "
b110101 "
b1111 !
b10101 "
b11101 "
0>
1A
1@
00
19
1<
1;
1:
1J
0E
#40000
b1101 "
b1100 "
b111 !
b11 !
b1 !
b1000 "
b0 !
b0 "
09
0<
0;
0:
01
0A
0@
0?
0J
1E
0B
0K
0G
0L
0I
0H
0D
13
15
16
18
14
17
1&
1#
1'
1%
1$
1(
#50000
b10 "
b11 "
b1000 !
b1100 !
b1110 !
b111 "
b1111 !
b1111 "
19
1<
1;
1:
11
1>
1A
1@
1L
1K
1J
1G
1D
0E
1B
03
04
07
08
1I
1H
0'
0&
0#
0(
05
06
0%
0$
#60000
b101111 "
b111111 "
b111101 "
b111100 "
b111 !
b11 !
b1 !
b111000 "
b0 !
b110000 "
09
0<
0;
0:
01
0>
0A
0@
1?
10
0J
1E
#70000
b110010 "
b110011 "
b1000 !
b1100 !
b1110 !
b110111 "
b1111 !
b111111 "
19
1<
1;
1:
11
1>
1A
1@
1J
0E
#80000
b101111 "
b101101 "
b111 !
b11 !
b1 !
b101001 "
b0 !
b100001 "
09
0<
0;
0:
0>
0A
0@
0?
0J
1E
0B
0K
0G
0L
0I
0H
0D
13
15
16
18
14
17
1&
1#
1'
1%
1$
1(
#90000
b100000 "
b100010 "
b1000 !
b1100 !
b1110 !
b100110 "
b1111 !
b101110 "
19
1<
1;
1:
01
1>
1A
1@
1L
1K
1J
1G
1D
0E
1B
03
04
07
08
1I
1H
0'
0&
0#
0(
05
06
0%
0$
#100000
b111110 "
b111111 "
b111101 "
b111 !
b11 !
b1 !
b0 !
b110101 "
09
0<
0;
0:
11
0>
0@
1?
0J
1E
#110000
b1000 !
b1100 !
b1110 !
b1111 !
b111101 "
1@
19
1<
1;
1:
1J
0E
#120000
b11101 "
b11001 "
b1001 "
b1000 "
b1010 "
b111 !
b11 !
b1 !
b0 !
b10 "
09
0<
0;
0:
01
1>
0A
0@
0?
00
0J
1E
0B
0K
0G
0L
0I
0H
0D
13
15
16
18
14
17
1&
1#
1'
1%
1$
1(
#130000
b100010 "
b100110 "
b100111 "
b1000 !
b1100 !
b1110 !
b1111 !
b101111 "
19
1<
1;
1:
11
1A
1@
10
1L
1K
1J
1G
1D
0E
1B
03
04
07
08
1I
1H
0'
0&
0#
0(
05
06
0%
0$
#140000
b111111 "
b111101 "
b11101 "
b11001 "
b11000 "
b111 !
b11 !
b1 !
b0 !
b10000 "
09
0<
0;
0:
01
0>
0A
0@
1?
00
0J
1E
#150000
b10100 "
b1000 !
b1100 !
b1110 !
b1111 !
b11100 "
19
1<
1;
1:
1A
1@
1J
0E
#160000
b1100 "
b1110 "
b101110 "
b101010 "
b111 !
b11 !
b1 !
b0 !
b100010 "
09
0<
0;
0:
1>
0A
0@
0?
10
0J
1E
0B
0K
0G
0L
0I
0H
0D
13
15
16
18
14
17
1&
1#
1'
1%
1$
1(
#170000
b100011 "
b100001 "
b1 "
b1000 !
b1100 !
b1110 !
b1111 !
b1001 "
19
1<
1;
1:
11
0>
1@
00
1L
1K
1J
1G
1D
0E
03
04
07
08
0G
0'
0&
0#
0(
14
1#
#180000
b11001 "
b111 !
b11 !
b1 !
b0 !
b10001 "
09
0<
0;
0:
0@
1?
0L
0J
0D
1E
1B
13
18
1G
1L
1I
1H
1D
1'
1(
03
05
06
08
04
0#
0'
0%
0$
0(
#190000
b110001 "
b1000 !
b1100 !
b1110 !
b1111 !
b111001 "
19
1<
1;
1:
1@
10
1J
0E
#200000
b111101 "
b101101 "
b1101 "
b111 !
b11 !
b1 !
b0 !
b101 "
09
0<
0;
0:
1A
0@
0?
00
0J
1E
0B
0K
0G
0L
0I
0H
0D
13
15
16
18
14
17
1&
1#
1'
1%
1$
1(
#210000
b100 "
b110 "
b10 "
b1000 !
b1100 !
b1110 !
b1111 !
b1010 "
19
1<
1;
1:
01
1>
0A
1@
1L
1K
1J
1G
1D
0E
1B
03
04
07
08
1I
1H
0'
0&
0#
0(
05
06
0%
0$
#220000
b11010 "
b111 !
b11 !
b1 !
b0 !
b10010 "
09
0<
0;
0:
0@
1?
0J
1E
#230000
b110010 "
b110011 "
b110111 "
b1000 !
b1100 !
b1110 !
b1111 !
b111111 "
19
1<
1;
1:
11
1A
1@
10
1J
0E
#240000
b111101 "
b101101 "
b101100 "
b111 !
b11 !
b1 !
b0 !
b100100 "
09
0<
0;
0:
01
0>
0@
0?
0J
1E
0B
0K
0G
0L
0I
0H
0D
13
15
16
18
14
17
1&
1#
1'
1%
1$
1(
#250000
b100000 "
b100010 "
b1000 !
b1100 !
b1110 !
b1111 !
b101010 "
19
1<
1;
1:
1>
0A
1@
1L
1K
1J
1G
1D
0E
1B
03
04
07
08
1I
1H
0'
0&
0#
0(
05
06
0%
0$
#260000
b1010 "
b11010 "
b11011 "
b11001 "
b111 !
b11 !
b1 !
b0 !
b10001 "
09
0<
0;
0:
11
0>
0@
1?
00
0J
1E
#270000
b110001 "
b1000 !
b1100 !
b1110 !
b1111 !
b111001 "
19
1<
1;
1:
1@
10
1J
0E
#280000
b101001 "
b101000 "
b101010 "
b1010 "
b111 !
b11 !
b1 !
b0 !
b10 "
09
0<
0;
0:
01
1>
0@
0?
00
0J
1E
0B
0K
0G
0L
0I
0H
0D
13
15
16
18
14
17
1&
1#
1'
1%
1$
1(
#290000
b110 "
b100 "
b1000 !
b1100 !
b1110 !
b1111 !
b1100 "
19
1<
1;
1:
0>
1A
1@
1L
1K
1J
1G
1D
0E
1B
03
04
07
08
1I
1H
0'
0&
0#
0(
05
06
0%
0$
#300000
b11100 "
b11000 "
b111 !
b11 !
b1 !
b0 !
b10000 "
09
0<
0;
0:
0A
0@
1?
0J
1E
#310000
b110000 "
b110010 "
b1000 !
b1100 !
b1110 !
b1111 !
b111010 "
19
1<
1;
1:
1>
1@
10
1J
0E
#320000
b111011 "
b101011 "
b101111 "
b1111 "
b1101 "
b111 !
b11 !
b1 !
b0 !
b101 "
09
0<
0;
0:
11
0>
1A
0@
0?
00
0J
1E
0B
0K
0G
0L
0I
0H
0D
13
15
16
18
14
17
1&
1#
1'
1%
1$
1(
#330000
b100101 "
b100111 "
b1000 !
b1100 !
b1110 !
b1111 !
b101111 "
19
1<
1;
1:
1>
1@
10
1L
1K
1J
1G
1D
0E
1B
03
04
07
08
1I
1H
0'
0&
0#
0(
05
06
0%
0$
#340000
b111111 "
b111011 "
b111 !
b11 !
b1 !
b0 !
b110011 "
09
0<
0;
0:
0A
0@
1?
0J
1E
#350000
b1000 !
b1100 !
b1110 !
b1111 !
b111011 "
1@
19
1<
1;
1:
1J
0E
#360000
b111010 "
b101010 "
b101110 "
b111 !
b11 !
b1 !
b0 !
b100110 "
09
0<
0;
0:
01
1A
0@
0?
0J
1E
0B
0K
0G
0L
0I
0H
0D
13
15
16
18
14
17
1&
1#
1'
1%
1$
1(
#370000
b100100 "
b100000 "
b1000 !
b1100 !
b1110 !
b1111 !
b101000 "
19
1<
1;
1:
0>
0A
1@
1L
1K
1J
1G
1D
0E
03
04
07
08
0G
0'
0&
0#
0(
14
1#
#380000
b101001 "
b111001 "
b111101 "
b111 !
b11 !
b1 !
b0 !
b110101 "
09
0<
0;
0:
11
1A
0@
1?
0L
0J
0D
1E
1B
13
18
1G
1L
1I
1H
1D
1'
1(
03
05
06
08
04
0#
0'
0%
0$
0(
#390000
b110100 "
b110000 "
b1000 !
b1100 !
b1110 !
b1111 !
b111000 "
19
1<
1;
1:
01
0A
1@
1J
0E
#400000
b101000 "
b111 !
b11 !
b1 !
b0 !
b100000 "
09
0<
0;
0:
0@
0?
0J
1E
0B
0K
0G
0L
0I
0H
0D
13
15
16
18
14
17
1&
1#
1'
1%
1$
1(
#410000
b100001 "
b1000 !
b1100 !
b1110 !
b1111 !
b101001 "
19
1<
1;
1:
11
1@
1L
1K
1J
1G
1D
0E
03
04
07
08
0G
0'
0&
0#
0(
14
1#
#420000
b101011 "
b111011 "
b111010 "
b111 !
b11 !
b1 !
b0 !
b110010 "
09
0<
0;
0:
01
1>
0@
1?
0L
0J
0D
1E
1B
13
18
1G
1L
1I
1H
1D
1'
1(
03
05
06
08
04
0#
0'
0%
0$
0(
#430000
b10010 "
b1000 !
b1100 !
b1110 !
b1111 !
b11010 "
19
1<
1;
1:
1@
00
1J
0E
#440000
b1010 "
b111 !
b11 !
b1 !
b0 !
b10 "
09
0<
0;
0:
0@
0?
0J
1E
0B
0K
0G
0L
0I
0H
0D
13
15
16
18
14
17
1&
1#
1'
1%
1$
1(
#450000
b110 "
b100 "
b101 "
b100101 "
b1000 !
b1100 !
b1110 !
b1111 !
b101101 "
19
1<
1;
1:
11
0>
1A
1@
10
1L
1K
1J
1G
1D
0E
1B
03
04
07
08
1I
1H
0'
0&
0#
0(
05
06
0%
0$
#460000
b111101 "
b111 !
b11 !
b1 !
b0 !
b110101 "
09
0<
0;
0:
0@
1?
0J
1E
#470000
b110111 "
b110110 "
b10110 "
b1000 !
b1100 !
b1110 !
b1111 !
b11110 "
19
1<
1;
1:
01
1>
1@
00
1J
0E
#480000
b11010 "
b1010 "
b1000 "
b1001 "
b101001 "
b111 !
b11 !
b1 !
b0 !
b100001 "
09
0<
0;
0:
11
0>
0A
0@
0?
10
0J
1E
0B
0K
0G
0L
0I
0H
0D
13
15
16
18
14
17
1&
1#
1'
1%
1$
1(
#490000
b100011 "
b1000 !
b1100 !
b1110 !
b1111 !
b101011 "
19
1<
1;
1:
1>
1@
1L
1K
1J
1G
1D
0E
1B
03
04
07
08
1I
1H
0'
0&
0#
0(
05
06
0%
0$
#500000
b111011 "
b111010 "
b11010 "
b111 !
b11 !
b1 !
b0 !
b10010 "
09
0<
0;
0:
01
0@
1?
00
0J
1E
#510000
b110010 "
b1000 !
b1100 !
b1110 !
b1111 !
b111010 "
19
1<
1;
1:
1@
10
1J
0E
#520000
b111000 "
b101000 "
b111 !
b11 !
b1 !
b0 !
b100000 "
09
0<
0;
0:
0>
0@
0?
0J
1E
0B
0K
0G
0L
0I
0H
0D
13
15
16
18
14
17
1&
1#
1'
1%
1$
1(
#530000
b0 "
b10 "
b1000 !
b1100 !
b1110 !
b1111 !
b1010 "
19
1<
1;
1:
1>
1@
00
1L
1K
1J
1G
1D
0E
1B
03
04
07
08
1I
1H
0'
0&
0#
0(
05
06
0%
0$
#540000
b1011 "
b11011 "
b11001 "
b111 !
b11 !
b1 !
b0 !
b10001 "
09
0<
0;
0:
11
0>
0@
1?
0J
1E
#550000
b110001 "
b110011 "
b1000 !
b1100 !
b1110 !
b1111 !
b111011 "
19
1<
1;
1:
1>
1@
10
1J
0E
#560000
b111010 "
b101010 "
b1010 "
b1000 "
b111 !
b11 !
b1 !
b0 !
b0 "
09
0<
0;
0:
01
0>
0@
0?
00
0J
1E
0B
0K
0G
0L
0I
0H
0D
13
15
16
18
14
17
1&
1#
1'
1%
1$
1(
#570000
b100 "
b101 "
b1000 !
b1100 !
b1110 !
b1111 !
b1101 "
19
1<
1;
1:
11
1A
1@
1L
1K
1J
1G
1D
0E
1B
03
04
07
08
1I
1H
0'
0&
0#
0(
05
06
0%
0$
#580000
b11101 "
b111101 "
b111111 "
b111 !
b11 !
b1 !
b0 !
b110111 "
09
0<
0;
0:
1>
0@
1?
10
0J
1E
#590000
b110110 "
b10110 "
b10100 "
b1000 !
b1100 !
b1110 !
b1111 !
b11100 "
19
1<
1;
1:
01
0>
1@
00
1J
0E
#600000
b11000 "
b1000 "
b1010 "
b111 !
b11 !
b1 !
b0 !
b10 "
09
0<
0;
0:
1>
0A
0@
0?
0J
1E
0B
0K
0G
0L
0I
0H
0D
13
15
16
18
14
17
1&
1#
1'
1%
1$
1(
#610000
b110 "
b1000 !
b1100 !
b1110 !
b1111 !
b1110 "
19
1<
1;
1:
1A
1@
1L
1K
1J
1G
1D
0E
1B
03
04
07
08
1I
1H
0'
0&
0#
0(
05
06
0%
0$
#620000
b1111 "
b11111 "
b11011 "
b111 !
b11 !
b1 !
b0 !
b10011 "
09
0<
0;
0:
11
0A
0@
1?
0J
1E
#630000
b110011 "
b110001 "
b110000 "
b1000 !
b1100 !
b1110 !
b1111 !
b111000 "
19
1<
1;
1:
01
0>
1@
10
1J
0E
#640000
b101000 "
b1000 "
b1010 "
b1011 "
b111 !
b11 !
b1 !
b0 !
b11 "
09
0<
0;
0:
11
1>
0@
0?
00
0J
1E
0B
0K
0G
0L
0I
0H
0D
13
15
16
18
14
17
1&
1#
1'
1%
1$
1(
#650000
b100011 "
b100001 "
b100000 "
b1000 !
b1100 !
b1110 !
b1111 !
b101000 "
19
1<
1;
1:
01
0>
1@
10
1L
1K
1J
1G
1D
0E
03
04
07
08
0G
0'
0&
0#
0(
14
1#
#660000
b111000 "
b111 !
b11 !
b1 !
b0 !
b110000 "
09
0<
0;
0:
0@
1?
0L
0J
0D
1E
1B
13
18
1G
1L
1I
1H
1D
1'
1(
03
05
06
08
04
0#
0'
0%
0$
0(
#670000
b10000 "
b10010 "
b1000 !
b1100 !
b1110 !
b1111 !
b11010 "
19
1<
1;
1:
1>
1@
00
1J
0E
#680000
b11011 "
b1011 "
b101011 "
b101001 "
b111 !
b11 !
b1 !
b0 !
b100001 "
09
0<
0;
0:
11
0>
0@
0?
10
0J
1E
0B
0K
0G
0L
0I
0H
0D
13
15
16
18
14
17
1&
1#
1'
1%
1$
1(
#690000
b1 "
b11 "
b1000 !
b1100 !
b1110 !
b1111 !
b1011 "
19
1<
1;
1:
1>
1@
00
1L
1K
1J
1G
1D
0E
1B
03
04
07
08
1I
1H
0'
0&
0#
0(
05
06
0%
0$
#700000
b11011 "
b11001 "
b111 !
b11 !
b1 !
b0 !
b10001 "
09
0<
0;
0:
0>
0@
1?
0J
1E
#710000
b10011 "
b1000 !
b1100 !
b1110 !
b1111 !
b11011 "
19
1<
1;
1:
1>
1@
1J
0E
#720000
b1011 "
b111 !
b11 !
b1 !
b0 !
b11 "
09
0<
0;
0:
0@
0?
0J
1E
0B
0K
0G
0L
0I
0H
0D
13
15
16
18
14
17
1&
1#
1'
1%
1$
1(
#730000
b100011 "
b100001 "
b1000 !
b1100 !
b1110 !
b1111 !
b101001 "
19
1<
1;
1:
0>
1@
10
1L
1K
1J
1G
1D
0E
03
04
07
08
0G
0'
0&
0#
0(
14
1#
#740000
b101000 "
b111000 "
b11000 "
b11010 "
b111 !
b11 !
b1 !
b0 !
b10010 "
09
0<
0;
0:
01
1>
0@
1?
00
0L
0J
0D
1E
1B
13
18
1G
1L
1I
1H
1D
1'
1(
03
05
06
08
04
0#
0'
0%
0$
0(
#750000
b10110 "
b10111 "
b110111 "
b1000 !
b1100 !
b1110 !
b1111 !
b111111 "
19
1<
1;
1:
11
1A
1@
10
1J
0E
#760000
b101111 "
b101101 "
b101001 "
b1001 "
b111 !
b11 !
b1 !
b0 !
b1 "
09
0<
0;
0:
0>
0A
0@
0?
00
0J
1E
0B
0K
0G
0L
0I
0H
0D
13
15
16
18
14
17
1&
1#
1'
1%
1$
1(
#770000
b0 "
b10 "
b110 "
b1000 !
b1100 !
b1110 !
b1111 !
b1110 "
19
1<
1;
1:
01
1>
1A
1@
1L
1K
1J
1G
1D
0E
1B
03
04
07
08
1I
1H
0'
0&
0#
0(
05
06
0%
0$
#780000
b11110 "
b11111 "
b11011 "
b111 !
b11 !
b1 !
b0 !
b10011 "
09
0<
0;
0:
11
0A
0@
1?
0J
1E
#790000
b110011 "
b1000 !
b1100 !
b1110 !
b1111 !
b111011 "
19
1<
1;
1:
1@
10
1J
0E
#800000
b111001 "
b101001 "
b101101 "
b1101 "
b111 !
b11 !
b1 !
b0 !
b101 "
09
0<
0;
0:
0>
1A
0@
0?
00
0J
1E
0B
0K
0G
0L
0I
0H
0D
13
15
16
18
14
17
1&
1#
1'
1%
1$
1(
#810000
b111 "
b1000 !
b1100 !
b1110 !
b1111 !
b1111 "
19
1<
1;
1:
1>
1@
1L
1K
1J
1G
1D
0E
1B
03
04
07
08
1I
1H
0'
0&
0#
0(
05
06
0%
0$
#820000
b1110 "
b11110 "
b111110 "
b111100 "
b111 !
b11 !
b1 !
b0 !
b110100 "
09
0<
0;
0:
01
0>
0@
1?
10
0J
1E
#830000
b110000 "
b10000 "
b1000 !
b1100 !
b1110 !
b1111 !
b11000 "
19
1<
1;
1:
0A
1@
00
1J
0E
#840000
b1000 "
b1010 "
b111 !
b11 !
b1 !
b0 !
b10 "
09
0<
0;
0:
1>
0@
0?
0J
1E
0B
0K
0G
0L
0I
0H
0D
13
15
16
18
14
17
1&
1#
1'
1%
1$
1(
#850000
b11 "
b111 "
b1000 !
b1100 !
b1110 !
b1111 !
b1111 "
19
1<
1;
1:
11
1A
1@
1L
1K
1J
1G
1D
0E
1B
03
04
07
08
1I
1H
0'
0&
0#
0(
05
06
0%
0$
#860000
b11111 "
b11110 "
b111 !
b11 !
b1 !
b0 !
b10110 "
09
0<
0;
0:
01
0@
1?
0J
1E
#870000
b110110 "
b110100 "
b110000 "
b110001 "
b1000 !
b1100 !
b1110 !
b1111 !
b111001 "
19
1<
1;
1:
11
0>
0A
1@
10
1J
0E
#880000
b101001 "
b101011 "
b101010 "
b111 !
b11 !
b1 !
b0 !
b100010 "
09
0<
0;
0:
01
1>
0@
0?
0J
1E
0B
0K
0G
0L
0I
0H
0D
13
15
16
18
14
17
1&
1#
1'
1%
1$
1(
#890000
b100110 "
b100100 "
b100101 "
b1000 !
b1100 !
b1110 !
b1111 !
b101101 "
19
1<
1;
1:
11
0>
1A
1@
1L
1K
1J
1G
1D
0E
1B
03
04
07
08
1I
1H
0'
0&
0#
0(
05
06
0%
0$
#900000
b111101 "
b111001 "
b111000 "
b111 !
b11 !
b1 !
b0 !
b110000 "
09
0<
0;
0:
01
0A
0@
1?
0J
1E
#910000
b10000 "
b10010 "
b10011 "
b1000 !
b1100 !
b1110 !
b1111 !
b11011 "
19
1<
1;
1:
11
1>
1@
00
1J
0E
#920000
b1011 "
b111 !
b11 !
b1 !
b0 !
b11 "
09
0<
0;
0:
0@
0?
0J
1E
0B
0K
0G
0L
0I
0H
0D
13
15
16
18
14
17
1&
1#
1'
1%
1$
1(
#930000
b111 "
b100111 "
b100110 "
b1000 !
b1100 !
b1110 !
b1111 !
b101110 "
19
1<
1;
1:
01
1A
1@
10
1L
1K
1J
1G
1D
0E
1B
03
04
07
08
1I
1H
0'
0&
0#
0(
05
06
0%
0$
#940000
b101100 "
b111100 "
b111101 "
b111 !
b11 !
b1 !
b0 !
b110101 "
09
0<
0;
0:
11
0>
0@
1?
0J
1E
#950000
b10101 "
b10100 "
b1000 !
b1100 !
b1110 !
b1111 !
b11100 "
19
1<
1;
1:
01
1@
00
1J
0E
#960000
b11000 "
b11010 "
b1010 "
b1011 "
b111 !
b11 !
b1 !
b0 !
b11 "
09
0<
0;
0:
11
1>
0A
0@
0?
0J
1E
0B
0K
0G
0L
0I
0H
0D
13
15
16
18
14
17
1&
1#
1'
1%
1$
1(
#970000
b111 "
b1000 !
b1100 !
b1110 !
b1111 !
b1111 "
19
1<
1;
1:
1A
1@
1L
1K
1J
1G
1D
0E
1B
03
04
07
08
1I
1H
0'
0&
0#
0(
05
06
0%
0$
#980000
b101111 "
b111111 "
b111 !
b11 !
b1 !
b0 !
b110111 "
09
0<
0;
0:
0@
1?
10
0J
1E
#990000
b110101 "
b110100 "
b110000 "
b10000 "
b1000 !
b1100 !
b1110 !
b1111 !
b11000 "
19
1<
1;
1:
01
0>
0A
1@
00
1J
0E
