simulation/qsim/ULA.msim.vcd
$comment
	File created using the following command:
		vcd file ULA.msim.vcd -direction
$end
$date
	Thu Jul 22 12:16:01 2021
$end
$version
	ModelSim Version 2020.1
$end
$timescale
	1ps
$end

$scope module somador_completo_vlg_vec_tst $end
$var reg 5 ! E1 [4:0] $end
$var reg 5 " E2 [4:0] $end
$var wire 1 # S [5] $end
$var wire 1 $ S [4] $end
$var wire 1 % S [3] $end
$var wire 1 & S [2] $end
$var wire 1 ' S [1] $end
$var wire 1 ( S [0] $end
$var wire 1 ) saida_antes [5] $end
$var wire 1 * saida_antes [4] $end
$var wire 1 + saida_antes [3] $end
$var wire 1 , saida_antes [2] $end
$var wire 1 - saida_antes [1] $end
$var wire 1 . saida_antes [0] $end

$scope module i1 $end
$var wire 1 / gnd $end
$var wire 1 0 vcc $end
$var wire 1 1 unknown $end
$var tri1 1 2 devclrn $end
$var tri1 1 3 devpor $end
$var tri1 1 4 devoe $end
$var wire 1 5 S[5]~output_o $end
$var wire 1 6 S[4]~output_o $end
$var wire 1 7 S[3]~output_o $end
$var wire 1 8 S[2]~output_o $end
$var wire 1 9 S[1]~output_o $end
$var wire 1 : S[0]~output_o $end
$var wire 1 ; saida_antes[5]~output_o $end
$var wire 1 < saida_antes[4]~output_o $end
$var wire 1 = saida_antes[3]~output_o $end
$var wire 1 > saida_antes[2]~output_o $end
$var wire 1 ? saida_antes[1]~output_o $end
$var wire 1 @ saida_antes[0]~output_o $end
$var wire 1 A E1[4]~input_o $end
$var wire 1 B E2[4]~input_o $end
$var wire 1 C E2[3]~input_o $end
$var wire 1 D E1[3]~input_o $end
$var wire 1 E E2[1]~input_o $end
$var wire 1 F E2[0]~input_o $end
$var wire 1 G E1[0]~input_o $end
$var wire 1 H E1[1]~input_o $end
$var wire 1 I inst|menor_que_magnitude|inst1|inst2~0_combout $end
$var wire 1 J E2[2]~input_o $end
$var wire 1 K E1[2]~input_o $end
$var wire 1 L inst|inst|or_mux~0_combout $end
$var wire 1 M inst|inst|or_mux~1_combout $end
$var wire 1 N inst|inst|or_mux~2_combout $end
$var wire 1 O somador|inst7|inst~combout $end
$var wire 1 P somador_ch|inst|mux2x1_2|or_mux~0_combout $end
$var wire 1 Q somador_ch|inst5|mux2x1_2|and_mux_1~combout $end
$var wire 1 R somador_ch|inst5|mux2x1_2|and_mux_2~combout $end
$var wire 1 S somador|inst6|inst3~combout $end
$var wire 1 T somador|inst6|inst4~0_combout $end
$var wire 1 U somador_ch|inst|mux2x1_3|or_mux~0_combout $end
$var wire 1 V somador_ch|inst5|mux2x1_3|and_mux_1~combout $end
$var wire 1 W somador_ch|inst5|mux2x1_3|and_mux_2~combout $end
$var wire 1 X somador|inst5|inst3~0_combout $end
$var wire 1 Y descomplementar|comp_5bits|inst|inst5|inst1~combout $end
$var wire 1 Z somador|inst5|inst4~0_combout $end
$var wire 1 [ somador_ch|comp_2_1|inst|inst|inst3~combout $end
$var wire 1 \ somador_ch|inst|mux2x1_4|or_mux~0_combout $end
$var wire 1 ] somador_ch|comp_2_2|inst|inst|inst3~combout $end
$var wire 1 ^ somador_ch|inst5|mux2x1_4|and_mux_1~combout $end
$var wire 1 _ somador_ch|inst5|mux2x1_4|and_mux_2~combout $end
$var wire 1 ` somador|inst|inst3~combout $end
$var wire 1 a somador|inst|inst4~0_combout $end
$var wire 1 b descomplementar|comp_2_seletor_5bits|mux2x1_5|or_mux~0_combout $end
$var wire 1 c descomplementar|comp_2_seletor_5bits|mux2x1_4|or_mux~0_combout $end
$var wire 1 d somador|inst7|inst2~combout $end
$var wire 1 e descomplementar|comp_2_seletor_5bits|mux2x1_3|or_mux~0_combout $end
$var wire 1 f descomplementar|comp_2_seletor_5bits|mux2x1_2|or_mux~2_combout $end
$upscope $end
$upscope $end
$enddefinitions $end
#0
$dumpvars
b10100 !
b10111 "
1(
1'
0&
1%
0$
1#
1.
0-
1,
0+
1*
1)
0/
10
x1
12
13
14
15
06
17
08
19
1:
1;
1<
0=
1>
0?
1@
1A
1B
0C
0D
1E
1F
0G
0H
1I
1J
1K
1L
1M
1N
0O
0P
0Q
0R
0S
0T
1U
0V
0W
1X
1Y
0Z
1[
1\
1]
1^
0_
0`
1a
0b
1c
1d
0e
1f
$end
#10000
b11100 !
b11000 !
b10101 "
0E
0K
1D
1Q
0U
0M
1S
0X
0>
1?
1-
0,
0f
1e
18
09
0'
1&
#20000
b1000 !
b1010 !
b1011 !
b10001 "
b11 !
b111 !
0J
1G
1H
1K
0D
0A
1V
0L
1U
1P
1O
0I
0\
1M
1f
0d
0:
0@
19
1Z
0M
1T
1'
0.
0(
0a
1`
0N
05
0;
1=
0<
0*
1+
0)
0#
1a
0`
1N
1X
0e
08
1>
15
1;
0=
1<
1*
0+
1)
1#
1,
0&
#30000
b11001 "
b11000 "
b11010 "
b10111 !
b10101 !
b11101 !
b11001 !
0H
0K
1D
1A
0F
1E
1C
0[
1I
1\
0]
0O
0f
1d
1:
1@
09
0\
1L
0^
0'
1.
1(
1`
0S
0?
1=
1M
1+
0-
0a
0c
1f
19
07
0<
0*
0%
1'
1b
16
1$
#40000
b1010 "
b1001 !
b1011 !
b11 !
1H
0D
0A
0B
1[
0U
0I
1_
0V
1R
0Q
0N
05
0;
0Z
0L
0)
0#
1a
0`
0f
1e
1c
0b
06
17
18
09
0=
1<
1*
0+
0'
1&
1%
0$
0a
1`
1b
0c
07
16
1=
0<
0*
1+
1$
0%
0b
1c
17
06
0$
1%
#50000
b10 !
b1110 "
b110 "
b10110 "
b0 !
1J
0C
1B
0G
0H
1]
1L
0_
0M
0R
1Q
0[
0P
1I
0d
0:
0@
1^
1M
0T
0.
0(
0`
1N
1S
1?
15
1;
0=
0+
1)
1#
1-
1`
0N
0X
1b
1f
0e
08
19
16
0>
05
0;
1=
1+
0)
0#
0,
1$
1'
0&
0b
06
0$
#60000
b100 !
b10100 !
b10101 !
b11110 "
b10111 !
1C
1G
1H
1K
1A
0]
1[
0I
1d
1N
15
1;
1:
1@
0^
1\
0L
1.
1(
1)
1#
1e
0f
0c
1b
16
07
09
18
1&
0'
0%
1$
#70000
b11100 "
b11000 "
b1000 "
b111 !
b110 !
b0 "
b100 !
0G
0H
0A
0E
0J
0C
0B
1U
0\
0Q
0M
1f
0d
0N
05
0;
0:
0@
19
1'
0.
0(
0)
0#
1X
0`
0S
0e
1c
0b
06
17
08
0?
0=
1>
1,
0+
0-
0&
1%
0$
1e
0c
0f
09
07
18
1&
0%
0'
#80000
b1100 !
b10 "
b10010 "
b11100 !
b11101 !
1E
1B
1G
1D
1A
1]
1V
1Q
1I
0[
0U
1P
1\
1N
1d
1:
1@
15
1;
1^
1T
0\
1)
1#
1.
1(
1`
1f
0e
1c
1b
16
17
08
19
1=
1Z
1+
1'
0&
1%
1$
0X
0c
07
0>
0,
0%
1a
0`
1e
18
0=
1<
1*
0+
1&
0b
1c
17
06
0$
1%
#90000
b11001 !
b10001 !
b1 !
b0 !
0G
0K
0D
0A
0Y
0P
1L
0f
0d
0:
0@
09
0T
1M
0'
0.
0(
0c
1b
1S
0e
08
1?
16
07
0Z
1Y
0%
1$
1-
0&
1X
0N
1f
1e
18
19
05
0;
1>
1,
0)
0#
1'
1&
0a
1`
1=
0<
0*
1+
0b
1c
17
06
0$
1%
#100000
b10011 "
b10 !
b10001 "
b1 "
b110 !
b1110 !
b11110 !
b11111 !
1G
1H
1K
1D
1A
1F
0E
0B
1O
0I
0L
0M
0V
0Q
0^
1N
15
1;
1)
1#
0N
0X
0`
0e
0c
1b
16
07
08
0=
0>
05
0;
0)
0#
0,
0+
0&
0%
1$
0b
06
0$
#110000
b101 "
b1101 "
b11101 !
b1111 "
b10101 !
0H
0D
1E
1J
1C
1[
1P
1I
1M
0]
1R
1W
1_
1\
1T
1L
1N
1X
1`
1=
1>
15
1;
1Z
1)
1#
1,
1+
1a
0`
0X
1b
16
0>
0=
1<
1*
0+
0,
1$
1`
0b
1c
1e
18
17
06
1=
1+
0$
1%
1&
0c
07
0%
#120000
b1110 "
b11110 "
b101 !
b100 !
b11010 "
b10010 "
b10000 "
0G
0A
0F
0E
0J
0C
1B
1U
0P
0O
0I
0\
0R
0W
0L
0_
0N
05
0;
0T
0M
0)
0#
0S
0a
0e
1c
1b
16
17
08
0<
0?
0Z
0Y
0-
0*
0&
1%
1$
1X
1N
0f
0b
06
09
15
1;
1>
1Y
1,
1)
1#
0'
0$
0`
1b
1e
18
16
0=
0+
1$
1&
#130000
b1100 !
b0 "
b1101 !
b100 "
1J
0B
1G
1D
1]
1W
0[
1\
0N
1f
1d
1:
1@
19
05
0;
1Z
0)
0#
1'
1.
1(
0X
1`
0f
0c
0b
06
07
09
1=
0>
0,
1+
0'
0%
0$
1a
0`
0e
1c
17
08
0=
1<
1*
0+
0&
1%
1b
0c
07
16
1$
0%
#140000
b101 "
b1101 "
b11101 "
b1100 !
0G
1F
1C
1B
1I
0]
1Q
1^
0W
1N
15
1;
1L
0^
0Z
1)
1#
1S
1`
1X
1f
1e
1c
0b
06
17
18
19
1>
1=
1?
1M
1-
1+
1,
1'
1&
1%
0$
0a
0f
0e
0c
07
08
09
0<
0*
0'
0&
0%
0N
1b
16
05
0;
0)
0#
1$
1f
1e
1c
0b
06
17
18
19
1'
1&
1%
0$
#150000
b1000 !
b1010 !
b11111 "
b10111 "
b111 "
1E
0C
0B
1H
0K
1]
1R
0Q
0M
1W
0U
1P
1T
0S
0?
1Z
0-
0X
0f
09
0>
0,
0'
1a
0`
0e
08
0=
1<
1*
0+
0&
1b
0c
07
16
1$
0%
#160000
b11010 !
b10010 !
b11 "
b10011 !
b10111 !
b10101 !
b1 "
0E
0J
1G
0H
1K
0D
1A
0R
0I
0W
0L
1[
0Y
1O
0\
1M
0d
0:
0@
0Z
0M
1\
0.
0(
1X
0a
1`
1N
15
1;
1=
0<
1>
1Y
1,
0*
1+
1)
1#
0N
1e
1c
17
18
05
0;
0)
0#
1&
1%
0b
06
0$
#170000
b0 "
b10000 "
b11101 !
b10100 "
b11100 !
b11000 !
b11010 !
b10110 "
0G
1H
0K
1D
0F
1E
1J
1B
0[
1U
0O
1L
1Q
1^
1N
15
1;
0\
1Z
1)
1#
0X
1a
0`
0c
1b
16
07
0=
1<
0>
0Y
0,
1*
0+
0%
1$
0e
0b
1c
17
06
08
0&
0$
1%
0c
1b
16
07
0%
1$
#180000
b1010 !
b10111 "
b1011 !
b10101 "
1F
0E
1G
0A
1O
0U
1\
0Z
1S
1X
1`
1=
1>
1?
1Y
1-
1,
1+
0`
1f
1c
0b
06
17
19
0=
0+
1'
1%
0$
#190000
b101 "
b1 "
b11011 !
b0 "
1A
0F
0J
0B
0\
1U
0P
0]
0Q
0O
0L
0^
0N
0f
1d
1:
1@
09
05
0;
1Z
0T
0)
0#
0'
1.
1(
0a
0X
0S
1f
1e
0c
1b
16
07
18
19
0?
0>
0<
0Z
0*
0,
0-
1'
1&
0%
1$
1`
1X
0b
0e
0f
09
08
06
1>
1=
1+
1,
0$
0&
0'
0`
1c
1e
18
17
0=
0+
1%
1&
0c
07
0%
#200000
b1000 "
b10011 !
b10001 !
b10000 !
b1010 "
b11010 "
b11110 "
0G
0H
0D
1E
1J
1C
1B
0U
1I
1M
1Q
1L
0d
1N
15
1;
0:
0@
0.
0(
1)
1#
0X
1S
1c
1b
16
17
1?
0>
0,
1-
1%
1$
1f
19
1'
#210000
b11111 "
b10111 "
b10010 !
1H
1F
0C
1[
1U
1P
1]
0Q
0f
1d
1:
1@
09
1\
1^
0'
1.
1(
1X
1>
1,
1a
0e
08
1<
1*
0&
0b
06
0$
#220000
b10110 !
b110 !
b1110 !
b1111 !
b10101 "
b101 "
b1 "
b0 "
0F
0E
0J
0B
1G
1K
1D
0A
0]
0I
0L
0^
0[
0M
0N
05
0;
0)
0#
0a
1`
1f
1e
0c
1b
16
07
18
19
1=
0<
0*
1+
1'
1&
0%
1$
0b
1c
17
06
0$
1%
#230000
b1101 !
b101 !
b100 !
b10 "
b110 "
1E
1J
0G
0H
0D
1]
1R
1I
1W
1[
0P
0\
0d
0:
0@
1L
1Z
0.
0(
0X
0`
0=
0>
1M
0,
0+
1`
0e
0c
07
08
1=
1+
0&
0%
1c
17
1%
#240000
b1110 "
b0 !
b11110 "
b1000 !
0K
1D
1C
1B
0U
1\
0]
1^
0W
0R
1Q
0Z
0^
1a
1<
1*
0a
1b
16
0<
0*
1$
0b
06
0$
#250000
b11111 "
b11101 "
b11001 "
b1100 !
b1001 "
b100 !
1K
0D
1F
0E
0J
0B
1U
0L
0\
0Q
1_
1d
1:
1@
1.
1(
1X
0S
0?
1>
1,
0-
1e
0f
09
18
1&
0'
#260000
b110 !
b1 "
b0 "
b10 "
b10 !
b10010 "
0F
1E
0C
1B
1H
0K
1]
1V
1Q
0I
0_
0M
0U
1P
1L
0d
0:
0@
1^
1T
0L
1M
0.
0(
0`
1N
15
1;
0=
1Z
0M
0+
1)
1#
1`
0X
0N
1b
16
05
0;
0>
1=
0Y
1+
0,
0)
0#
1$
1a
0`
1N
0b
0e
08
06
15
1;
0=
1<
1*
0+
1)
1#
0$
0&
0c
1b
16
07
0%
1$
#270000
b11 !
b1 !
b11010 "
b11000 "
b1000 "
0E
1C
0B
1G
0H
0V
0Q
1_
1M
0^
1Y
0P
0N
1f
1d
1:
1@
19
05
0;
0Z
0T
0)
0#
1'
1.
1(
1X
0f
09
1>
1,
0'
0a
1`
0X
1e
18
0>
1=
0<
0*
1+
0,
1&
0b
1c
0e
08
17
06
0$
1%
0&
#280000
b10001 !
b10011 !
b0 "
b10 "
1E
0C
1H
1A
1R
0_
0M
1U
1\
1N
15
1;
1)
1#
1S
0N
1X
1f
1e
0c
1b
16
07
18
19
1>
05
0;
1?
1-
0)
0#
1,
1'
1&
0%
1$
1c
0b
06
17
1%
0$
#290000
b11 "
b11 !
b1 !
b1011 "
0H
0A
1F
1C
0U
1I
0\
0]
1O
1_
1M
0d
0:
0@
1L
1T
0.
0(
0X
0S
0?
0>
0Y
0,
0-
1X
0e
0f
09
08
1>
1Y
1,
0&
0'
1e
18
1&
#300000
b101 !
b1001 "
b1000 "
b0 "
0F
0E
0C
1K
0O
0I
0R
0_
1U
0L
1d
1:
1@
0T
1Z
0M
1.
1(
0`
0X
0>
0=
0Z
0+
0,
1X
1`
0c
0e
08
07
1=
1>
1,
1+
0%
0&
0`
1e
1c
17
18
0=
0+
1&
1%
0c
07
0%
#310000
b100 "
b1101 !
b10100 "
b11101 !
b11111 !
b10110 "
b10111 "
b11111 "
1H
1D
1A
1F
1E
1J
1C
1B
0[
0U
1\
1O
1N
0d
0:
0@
15
1;
0\
1)
1#
0.
0(
0X
1`
1S
1c
1b
16
17
1?
1=
0>
0,
1+
1-
1%
1$
0`
0c
1f
19
07
0=
0+
0%
1'
1c
17
1%
#320000
b11110 !
b11011 "
b11100 !
b11010 "
0F
0J
0G
0H
1V
1Q
0O
1I
1U
1Z
1`
1=
1+
0c
07
0%
#330000
b1100 !
b1101 !
b11110 "
b11111 "
1F
1J
1G
0A
0V
0Q
1O
1L
1\
0Z
1M
1X
1a
0`
0=
1<
1>
1,
1*
0+
0a
1`
0N
0e
0b
1c
17
06
08
05
0;
1=
0<
0*
1+
0)
0#
0&
0$
1%
1e
18
1&
#340000
b1001 !
b1 !
b1111 "
b1011 "
0J
0B
0K
0D
1_
1R
1[
0U
0\
1T
0S
0X
0>
0?
0Y
0-
0,
1X
0f
0e
08
09
1>
1Y
1,
0'
0&
1e
18
1&
#350000
b11 "
b11 !
b10 "
b1011 !
b110 "
1H
1D
0F
1J
0C
0[
1P
0I
1\
0M
1]
0O
1W
0_
1d
1:
1@
1Z
1.
1(
0X
0>
0,
1a
0`
0e
08
0=
1<
1*
0+
0&
1b
0c
07
16
1$
0%
#360000
b1010 !
b1110 !
b10110 "
b11110 "
b1100 !
b11111 "
b100 !
1F
1C
1B
0G
0H
1K
0D
0]
1I
1M
1^
0W
0R
1[
1U
0P
0L
0\
1N
15
1;
0^
1L
0T
1)
1#
0N
1f
1e
1c
0b
06
17
18
19
05
0;
0Z
0)
0#
1'
1&
1%
0$
0a
1`
1X
0f
0e
0c
1b
16
07
08
09
1>
1=
0<
0*
1+
1,
0'
0&
0%
1$
0`
0b
1c
1e
18
17
06
0=
0+
0$
1%
1&
0c
07
0%
#370000
b11101 "
b10100 !
b11001 "
b10101 !
b10001 !
b1001 "
b1 "
b0 "
b11001 !
1G
0K
1D
1A
0F
0E
0J
0C
0B
0[
1P
0I
1\
0M
1N
15
1;
0\
0L
1)
1#
1S
1`
0N
1f
0e
1c
1b
16
17
08
19
05
0;
1=
1?
1-
1+
0)
0#
1'
0&
1%
1$
0`
1e
0b
06
18
0=
0+
1&
0$
0c
07
0%
#380000
b10 "
b1001 !
b1000 !
b10010 "
b11010 "
b11011 "
0G
0A
1F
1E
1C
1B
1[
0U
0P
1I
1\
1V
1N
15
1;
1L
1)
1#
0S
1`
0f
0e
1c
1b
16
17
08
09
1=
0?
1M
0-
1+
0'
0&
1%
1$
1f
0c
07
19
1'
0%
0N
05
0;
0)
0#
0f
1e
1c
0b
06
17
18
09
0'
1&
1%
0$
#390000
b11111 "
b11000 !
b10111 "
b10110 "
1A
0F
1J
0C
1]
0V
1Q
0M
1N
0d
0:
0@
15
1;
1^
1)
1#
0.
0(
0X
1S
0c
1b
16
07
1?
0>
0,
1-
0%
1$
1a
0`
1f
19
0=
1<
1*
0+
1'
0b
1c
17
06
0$
1%
#400000
b11010 !
b10010 !
b10100 "
b100 "
b10 !
0E
0B
1H
0D
0A
0Q
0I
0^
1W
1P
0\
1M
0N
05
0;
0)
0#
0a
1X
0e
0c
1b
16
07
08
1>
0<
0*
1,
0&
0%
1$
0b
1e
18
06
0$
1&
#410000
b1100 "
b0 !
b1000 !
b1110 "
b11000 !
0H
1D
1A
1E
1C
0P
1I
1\
0]
1R
1_
1N
15
1;
1)
1#
1a
0e
1c
1b
16
17
08
1<
1*
0&
1%
1$
0b
06
0$
#420000
b11100 !
b11101 !
b1010 "
b1011 "
b11011 "
b11001 "
1F
0E
0J
1B
1G
1K
1V
1Q
1O
0I
0R
0W
0L
0_
0[
1P
1T
0M
0\
0a
1`
1=
0<
1Z
0*
1+
0X
0`
1b
0c
07
16
0=
0>
0,
0+
1$
0%
1`
1e
1c
17
18
1=
1+
1&
1%
0c
07
0%
#430000
b11111 !
b1111 !
b1011 !
b11101 "
b11100 "
b11110 "
0F
1E
1J
1H
0K
0A
0V
0O
1L
1\
0f
1d
1:
1@
09
0Z
1M
0'
1.
1(
1X
0S
1a
0`
0=
1<
0?
1>
1,
0-
1*
0+
0a
1`
0N
0e
1f
0b
1c
17
06
19
08
05
0;
1=
0<
0*
1+
0)
0#
0&
1'
0$
1%
0f
1e
18
09
0'
1&
#440000
b10110 "
b110 "
b11011 !
b111 "
1A
1F
0C
0B
0\
1U
0P
1]
0Q
1O
0M
1W
1R
1N
0d
0:
0@
15
1;
1Z
1)
1#
0.
0(
0`
0N
0c
1b
16
07
05
0;
0=
0+
0)
0#
0%
1$
1`
0b
06
1=
1+
0$
1c
17
1%
#450000
b11111 !
b1111 "
1C
1K
1_
0]
1M
0U
0L
0M
1a
0`
1N
0X
0>
15
1;
0=
1<
0Y
1*
0+
1)
1#
0,
0N
0e
08
05
0;
0)
0#
0&
0c
1b
16
07
0%
1$
#460000
b10111 !
b10110 !
b1011 "
b1001 "
b11001 "
b11000 "
b10010 !
b10000 "
0F
0E
0J
0C
1B
0G
0K
0D
0O
0R
0W
0_
1[
1U
1P
1N
15
1;
0T
1\
1)
1#
1S
0a
1`
1=
0<
1?
0Z
1Y
1-
0*
1+
1X
1a
0`
1f
1e
1c
17
18
19
0=
1<
1>
1,
1*
0+
1'
1&
1%
0a
1`
0b
0e
08
06
1=
0<
0*
1+
0$
0&
1b
0c
07
16
1$
0%
#470000
b10010 "
b11010 "
1E
1C
1V
1Q
1M
1Z
1T
0X
0S
0?
0>
0Y
0,
0-
1a
0`
1X
0f
09
1>
0=
1<
1Y
1*
0+
1,
0'
1e
18
1&
1c
0b
06
17
1%
0$
#480000
b11010 !
b1010 "
b1011 "
b11110 !
b11 "
1F
0C
0B
1K
1D
1]
0V
0Q
1I
0M
1R
0[
0U
1f
1d
1:
1@
19
0Z
0\
1'
1.
1(
0N
0e
08
05
0;
0)
0#
0&
0a
0f
1e
0c
1b
16
07
18
09
0<
0*
0'
1&
0%
1$
0b
06
0$
#490000
b11100 !
b111 "
b10100 !
b10111 "
b10110 "
b11110 "
0F
1J
1C
1B
0H
0D
0]
1Q
1L
1M
1^
0R
1[
1U
0P
0d
1N
15
1;
0:
0@
0^
0T
1\
1Z
0.
0(
1)
1#
1S
1`
0X
1c
1b
16
17
0>
1=
1?
0Z
1-
1+
0,
1%
1$
1a
0`
1X
1f
0c
07
19
1>
0=
1<
1*
0+
1,
1'
0%
0a
1`
0b
1c
0e
08
17
06
1=
0<
0*
1+
0$
1%
0&
1b
0c
07
16
1$
0%
#500000
b100 !
b101 !
b11100 "
b1 !
b11000 "
b1000 "
b0 "
0E
0J
0C
0B
1G
0K
0A
0Q
0I
0U
0\
0N
0f
1d
1:
1@
09
05
0;
0L
0)
0#
0'
1.
1(
0S
0X
0`
1f
1e
1c
0b
06
17
18
19
0=
0>
0?
0M
0-
0,
0+
1'
1&
1%
0$
0f
0e
0c
07
08
09
0'
0&
0%
#510000
b1001 !
b1 "
b11001 !
b11000 !
b11 "
b11100 !
b10011 "
b11011 "
1F
1E
1C
1B
0G
1K
1D
1A
1V
1I
0[
1U
1\
1N
15
1;
1Z
0\
1)
1#
1`
1f
1e
1c
1b
16
17
18
19
1=
1+
1'
1&
1%
1$
0c
07
0%
#520000
b11010 "
b11101 !
b11001 !
1G
0K
0F
1P
1L
1Q
1T
1M
1X
1>
1,
0e
08
0&
#530000
b11110 "
b11100 "
b1100 "
b100 "
b101 "
b11101 !
1K
1F
0E
1J
0C
0B
0U
1]
0V
0Q
1O
0I
1W
0M
0f
0d
0:
0@
09
0L
0'
0.
0(
0X
0N
1e
18
05
0;
0>
0Y
0,
0)
0#
1&
0e
1c
0b
06
17
08
0&
1%
0$
#540000
b10101 !
b10100 !
b1 "
b10000 !
0J
0G
0K
0D
0W
1Y
0P
0O
1I
1d
1:
1@
0Z
0T
1L
1.
1(
1X
1>
1M
1,
0`
0X
1e
18
0>
0=
0+
0,
1&
1N
0c
0e
08
07
15
1;
1)
1#
0%
0&
1f
1e
1c
1b
16
17
18
19
1'
1&
1%
1$
#550000
b10010 !
b10 !
b11 "
b1011 "
b11 !
b1111 "
b111 !
1E
1J
1C
1G
1H
1K
0A
0]
1R
0I
1W
1_
1[
0Y
1U
1P
1O
0f
0d
0N
05
0;
0:
0@
09
1T
0L
1Z
0'
0.
0(
0)
0#
1S
1`
0c
0b
0e
08
06
07
1=
1?
1Y
1-
1+
0%
0$
0&
1X
1a
0`
1f
1c
17
19
0=
1<
1>
1,
1*
0+
1'
1%
0c
1b
1e
18
16
07
0%
1$
1&
#560000
b1110 "
b1111 !
b1101 !
b11101 !
b110 "
0H
1D
1A
0F
0C
0[
0U
1I
1\
0M
1]
0O
0_
1N
1d
1:
1@
15
1;
0\
1L
1)
1#
1.
1(
0X
0N
0S
0f
0e
1c
0b
06
17
08
09
0?
05
0;
0>
0,
0)
0#
0-
0'
0&
1%
0$
0a
1`
0c
1b
16
07
1=
0<
0*
1+
0%
1$
0b
1c
17
06
0$
1%
#570000
b100 "
b0 "
b11001 !
b10001 !
b10011 !
b1000 "
1H
0K
0D
0E
0J
1C
1[
1U
0P
0I
1M
0R
0W
1_
1\
0T
0L
1N
1a
0`
0=
1<
15
1;
0Z
1)
1#
1*
0+
1`
1X
1f
1e
18
19
1>
1=
1+
1,
1'
1&
0`
0c
0e
08
07
0=
0+
0%
0&
1c
17
1%
#580000
b11000 "
b11 !
b11010 "
b1011 !
b1001 !
0H
1D
0A
1E
1B
0[
0U
1I
0M
0]
1V
1Q
0_
1^
0N
05
0;
1L
0^
0)
0#
1N
1S
0f
1e
0c
1b
16
07
18
09
1?
15
1;
1M
1)
1#
1-
0'
1&
0%
1$
0a
1`
0e
1c
0b
06
17
08
1=
0<
0*
1+
0&
1%
0$
0N
1b
0c
07
16
05
0;
0)
0#
1$
0%
1f
1e
1c
0b
06
17
18
19
1'
1&
1%
0$
#590000
b1010 "
b11001 !
b10001 !
b10011 !
1H
0D
1A
0B
1[
1U
0I
0\
1_
0V
1R
0Q
1N
15
1;
1\
0L
1)
1#
0f
0e
0c
1b
16
07
08
09
0'
0&
0%
1$
1a
0`
0=
1<
1*
0+
0b
1c
17
06
0$
1%
#600000
b11010 "
b11011 !
b11001 !
0H
1D
1B
0[
1P
1I
0M
0_
1V
0R
1Q
0\
1T
1L
1Z
0S
0a
1`
0X
0>
1=
0<
0?
1M
0-
0*
1+
0,
1X
1f
1e
1b
0c
07
16
18
19
1>
1,
1'
1&
1$
0%
0e
08
0&
#610000
b11000 !
b11011 "
b10011 "
b11010 !
1F
0C
0G
1H
1]
0Q
0M
1^
0T
1S
1?
1-
1a
0`
0X
0f
09
0>
0=
1<
1*
0+
0,
0'
0b
1c
1e
18
17
06
0$
1%
1&
#620000
b10001 "
b1010 !
b1 "
b1011 !
1G
0A
0E
0B
0U
1O
0I
1\
0V
0^
1f
0d
0N
05
0;
0:
0@
19
0Z
1T
0L
1'
0.
0(
0)
0#
0S
0e
0c
1b
16
07
08
0?
0Y
0-
0&
0%
1$
0a
1`
1X
0f
09
1>
1=
0<
1Y
0*
1+
1,
0'
1c
0b
1e
18
06
17
1%
0$
1&
#630000
b101 "
b11 !
b1101 "
b1 !
b1111 "
b11111 "
b0 !
0G
0H
0D
1E
1J
1C
1B
0P
0O
1I
0\
1M
0]
1L
1^
1d
1N
15
1;
1:
1@
0T
0^
1.
1(
1)
1#
0N
0e
1f
0c
1b
16
07
19
08
05
0;
0)
0#
0&
1'
0%
1$
0X
0`
0f
1e
1c
0b
06
17
18
09
0=
0>
0,
0+
0'
1&
1%
0$
0e
0c
07
08
0&
0%
#640000
b11110 "
b10000 !
b1110 "
b10001 !
1G
1A
0F
0B
1[
1U
1P
1_
1W
1R
1N
15
1;
1\
1Z
1T
1)
1#
1`
1f
1e
1c
1b
16
17
18
19
1=
1+
1'
1&
1%
1$
1a
1X
0c
07
1>
1<
1*
1,
0%
0b
0e
08
06
0$
0&
#650000
b110 "
b111 "
b10111 "
b10000 !
0G
1F
0C
1B
0[
0U
0P
1]
0_
0W
0R
0\
0Z
0T
1^
0`
0=
0+
0a
1`
0X
1c
17
0>
1=
0<
0*
1+
0,
1%
1b
0c
1e
18
07
16
1$
0%
1&
#660000
b10100 !
b10101 "
b100 !
b10100 "
b100 "
b101 !
0F
0E
0B
1G
1K
0A
0I
0^
1W
1[
1U
0N
05
0;
0L
1Z
0)
0#
0`
0f
0e
1c
0b
06
17
08
09
0=
0M
0+
0'
0&
1%
0$
1`
0c
07
1=
1+
0%
1c
17
1%
#670000
b1101 !
b1100 "
b1001 !
b1101 "
b11101 "
1F
1C
1B
0K
1D
0]
0Y
1Q
1O
1^
0W
0[
0U
1L
1\
0d
1N
15
1;
0:
0@
0^
1T
0Z
1M
0.
0(
1)
1#
1b
1a
1<
16
1$
1*
0a
1X
0N
0b
06
05
0;
1>
0<
1Y
0*
1,
0)
0#
0$
1e
18
1&
#680000
b11001 "
b1011 !
b11011 !
b11010 !
b10010 !
b10001 "
b10000 "
b0 "
0G
1H
0D
1A
0F
0J
0C
0B
1[
1U
1P
0O
0\
0Q
0L
1N
15
1;
1\
1Z
0T
0M
1)
1#
0X
1S
0`
0c
1b
16
07
0=
1?
0>
0Z
0,
1-
0+
0%
1$
1a
1X
0N
1f
1c
17
19
05
0;
1>
1<
1*
1,
0)
0#
1'
1%
0a
1`
0c
07
1=
0<
0*
1+
0%
0b
1c
17
06
0$
1%
#690000
b10 "
b10110 !
b110 "
b1110 "
b11110 "
1K
1E
1J
1C
1B
0U
1Q
1M
1N
15
1;
1T
1)
1#
0X
0S
0e
0c
1b
16
07
08
0?
0>
0Y
0,
0-
0&
0%
1$
1X
0f
09
1>
1Y
1,
0'
1c
1e
18
17
1%
1&
0c
07
0%
#700000
b11110 !
b11111 "
b11101 "
b10101 "
1F
0E
0C
1D
1]
0M
0[
1f
1d
1:
1@
19
1^
0\
1'
1.
1(
0e
08
0&
#710000
b11111 !
b10001 "
b10111 !
0J
1G
0D
1V
1[
0P
1O
0f
0d
0:
0@
09
1Z
1\
0'
0.
0(
0X
1e
18
0>
0Y
0,
1&
1a
0e
08
1<
1*
0&
1c
0b
06
17
1%
0$
#720000
b10011 !
b10000 "
b10010 "
b10010 !
b10110 "
b11010 !
0F
1E
1J
0G
0K
1D
0V
0O
1L
0[
1U
1P
0\
0`
0=
0+
0c
1b
16
07
0%
1$
#730000
b11000 !
b110 "
b11001 !
b10 "
b10001 !
0J
0B
1G
0H
0D
0L
0^
1R
0Q
1[
1Y
1I
1M
0N
1f
1d
1:
1@
19
05
0;
0M
1\
1L
0)
0#
1'
1.
1(
0a
1`
1N
0f
09
15
1;
1=
0<
1M
0*
1+
1)
1#
0'
0N
1a
0`
1f
1e
18
19
0=
1<
05
0;
0)
0#
1*
0+
1'
1&
1N
0f
0e
08
09
15
1;
1)
1#
0'
0&
1f
1e
1c
0b
06
17
18
19
1'
1&
1%
0$
