simulation/qsim/ULA.msim.vcd
$comment
	File created using the following command:
		vcd file ULA.msim.vcd -direction
$end
$date
	Fri Jul 23 12:32:35 2021
$end
$version
	ModelSim Version 2020.1
$end
$timescale
	1ps
$end

$scope module conversor_completo_vlg_vec_tst $end
$var reg 1 ! E $end
$var reg 6 " F [5:0] $end
$var wire 1 # DIGITO1 [3] $end
$var wire 1 $ DIGITO1 [2] $end
$var wire 1 % DIGITO1 [1] $end
$var wire 1 & DIGITO1 [0] $end
$var wire 1 ' DIGITO2 [3] $end
$var wire 1 ( DIGITO2 [2] $end
$var wire 1 ) DIGITO2 [1] $end
$var wire 1 * DIGITO2 [0] $end

$scope module i1 $end
$var wire 1 + gnd $end
$var wire 1 , vcc $end
$var wire 1 - unknown $end
$var tri1 1 . devclrn $end
$var tri1 1 / devpor $end
$var tri1 1 0 devoe $end
$var wire 1 1 F[5]~input_o $end
$var wire 1 2 DIGITO1[3]~output_o $end
$var wire 1 3 DIGITO1[2]~output_o $end
$var wire 1 4 DIGITO1[1]~output_o $end
$var wire 1 5 DIGITO1[0]~output_o $end
$var wire 1 6 DIGITO2[3]~output_o $end
$var wire 1 7 DIGITO2[2]~output_o $end
$var wire 1 8 DIGITO2[1]~output_o $end
$var wire 1 9 DIGITO2[0]~output_o $end
$var wire 1 : F[2]~input_o $end
$var wire 1 ; E~input_o $end
$var wire 1 < F[4]~input_o $end
$var wire 1 = F[3]~input_o $end
$var wire 1 > inst|mux2x1_3|and_mux_1~0_combout $end
$var wire 1 ? F[1]~input_o $end
$var wire 1 @ inst|mux2x1_4|and_mux_1~0_combout $end
$var wire 1 A inst|mux2x1_4|and_mux_1~1_combout $end
$var wire 1 B inst2|mux2x1_1|or_mux~0_combout $end
$var wire 1 C inst2|mux2x1_1|or_mux~1_combout $end
$var wire 1 D inst2|mux2x1_2|or_mux~0_combout $end
$var wire 1 E inst2|mux2x1_2|or_mux~1_combout $end
$var wire 1 F inst2|mux2x1_3|or_mux~0_combout $end
$var wire 1 G inst2|mux2x1_3|or_mux~1_combout $end
$var wire 1 H F[0]~input_o $end
$upscope $end
$upscope $end
$enddefinitions $end
#0
$dumpvars
0!
b0 "
0&
0%
0$
0#
0*
0)
0(
0'
0+
1,
x-
1.
1/
10
01
02
03
04
05
06
07
08
09
0:
0;
0<
0=
0>
0?
0@
0A
0B
0C
0D
0E
0F
1G
0H
$end
#5000
b1 "
1H
19
1*
#10000
b11 "
b10 "
1?
0H
09
0G
1D
1B
0*
18
1)
#15000
b11 "
1H
19
1*
#20000
b111 "
b101 "
b100 "
0?
1:
0H
09
1G
0D
0B
0*
1E
17
08
0)
1(
#25000
b101 "
1H
19
1*
#30000
b111 "
b110 "
1?
0H
09
0G
0*
18
1)
#35000
b111 "
1H
19
1*
#40000
b1111 "
b1011 "
b1001 "
b1000 "
0?
0:
1=
0H
09
1G
0*
0E
1C
16
07
08
0)
0(
1'
#45000
b1001 "
1H
19
1*
#50000
1!
b1011 "
b1010 "
1;
1?
0H
09
1@
0*
0C
06
0'
1A
15
1&
#55000
b1011 "
1H
19
1*
#60000
b1111 "
b1101 "
b1100 "
0?
1:
0H
09
1F
1B
0*
0G
18
1)
#65000
b1101 "
1H
19
1*
#70000
b1111 "
b1110 "
1?
0H
09
0F
1D
0B
0*
1G
1E
17
08
0)
1(
#75000
b1111 "
1H
19
1*
#80000
b11111 "
b10111 "
b10011 "
b10001 "
b10000 "
0?
0:
0=
1<
0H
09
1F
0D
0*
0E
07
0G
0(
1E
17
18
1)
1(
#85000
b10001 "
1H
19
1*
#90000
b10011 "
b10010 "
1?
0H
09
0F
1D
1B
0*
1G
0E
1C
16
07
08
0)
0(
1'
#95000
b10011 "
1H
19
1*
#100000
b10111 "
b10101 "
b10100 "
0?
1:
0H
09
0D
0B
0@
0*
1>
14
1%
0C
0A
05
06
0'
0&
#105000
b10101 "
1H
19
1*
#110000
b10111 "
b10110 "
1?
0H
09
1F
0*
0G
18
1)
#115000
b10111 "
1H
19
1*
#120000
b11111 "
b11011 "
b11001 "
b11000 "
0?
0:
1=
0H
09
0F
0*
1E
17
1G
1(
08
0)
#125000
b11001 "
1H
19
1*
#130000
b11011 "
b11010 "
1?
0H
09
1F
0*
0G
18
1)
#135000
b11011 "
1H
19
1*
#140000
b11111 "
b11101 "
b11100 "
0?
1:
0H
09
0F
1B
0*
0E
07
1G
0(
1C
16
08
0)
1'
#145000
b11101 "
1H
19
1*
#150000
b11111 "
b11110 "
1?
0H
09
1D
0B
0*
0C
06
0'
#155000
b11111 "
1H
19
1*
#160000
b111111 "
b101111 "
b100111 "
b100011 "
b100001 "
b100000 "
0?
0:
0=
0<
11
0H
09
0D
0*
0>
04
0%
#165000
b100001 "
1H
19
1*
#170000
b100011 "
b100010 "
1?
0H
09
1D
1B
0*
#175000
b100011 "
1H
19
1*
#180000
b100111 "
b100101 "
b100100 "
0?
1:
0H
09
0D
0B
0*
1E
17
1(
0E
07
0(
#185000
b100101 "
1H
19
1*
#190000
b100111 "
b100110 "
1?
0H
09
0*
#195000
b100111 "
1H
19
1*
#200000
b101111 "
b101011 "
b101001 "
b101000 "
0?
0:
1=
0H
09
0*
#205000
b101001 "
1H
19
1*
#210000
b101011 "
b101010 "
1?
0H
09
1@
0*
1A
15
1&
#215000
b101011 "
1H
19
1*
#220000
b101111 "
b101101 "
b101100 "
0?
1:
0H
09
1F
1B
0*
0G
18
1)
#225000
b101101 "
1H
19
1*
#230000
b101111 "
b101110 "
1?
0H
09
0F
1D
0B
0*
1G
1E
17
08
0)
1(
#235000
b101111 "
1H
19
1*
#240000
b111111 "
b110111 "
b110011 "
b110001 "
b110000 "
0?
0:
0=
1<
0H
09
1F
0D
0*
0E
07
0G
0(
1E
17
18
1)
1(
#245000
b110001 "
1H
19
1*
#250000
b110011 "
b110010 "
1?
0H
09
0F
1D
1B
0*
1G
0E
1C
16
07
08
0)
0(
1'
#255000
b110011 "
1H
19
1*
#260000
b110111 "
b110101 "
b110100 "
0?
1:
0H
09
0D
0B
0@
0*
1>
14
1%
0C
0A
05
06
0'
0&
#265000
b110101 "
1H
19
1*
#270000
b110111 "
b110110 "
1?
0H
09
1F
0*
0G
18
1)
#275000
b110111 "
1H
19
1*
#280000
b111111 "
b111011 "
b111001 "
b111000 "
0?
0:
1=
0H
09
0F
0*
1E
17
1G
1(
08
0)
#285000
b111001 "
1H
19
1*
#290000
b111011 "
b111010 "
1?
0H
09
1F
0*
0G
18
1)
#295000
b111011 "
1H
19
1*
#300000
b111111 "
b111101 "
b111100 "
0?
1:
0H
09
0F
1B
0*
0E
07
1G
0(
1C
16
08
0)
1'
#305000
b111101 "
1H
19
1*
#310000
b111111 "
b111110 "
1?
0H
09
1D
0B
0*
0C
06
0'
#315000
b111111 "
1H
19
1*
#320000
b11111 "
b1111 "
b111 "
b11 "
b1 "
b0 "
0?
0:
0=
0<
01
0H
09
0D
0*
0>
04
0%
#325000
b1 "
1H
19
1*
#330000
b11 "
b10 "
1?
0H
09
1D
1B
0*
#335000
b11 "
1H
19
1*
#340000
b111 "
b101 "
b100 "
0?
1:
0H
09
0D
0B
0*
1E
17
1(
0E
07
0(
#345000
b101 "
1H
19
1*
#350000
b111 "
b110 "
1?
0H
09
0*
#355000
b111 "
1H
19
1*
#360000
b1111 "
b1011 "
b1001 "
b1000 "
0?
0:
1=
0H
09
0*
#365000
b1001 "
1H
19
1*
#370000
b1011 "
b1010 "
1?
0H
09
1@
0*
1A
15
1&
#375000
b1011 "
1H
19
1*
#380000
b1111 "
b1101 "
b1100 "
0?
1:
0H
09
1F
1B
0*
0G
18
1)
#385000
b1101 "
1H
19
1*
#390000
b1111 "
b1110 "
1?
0H
09
0F
1D
0B
0*
1G
1E
17
08
0)
1(
#395000
b1111 "
1H
19
1*
#400000
b11111 "
b10111 "
b10011 "
b10001 "
b10000 "
0?
0:
0=
1<
0H
09
1F
0D
0*
0E
07
0G
0(
1E
17
18
1)
1(
#405000
b10001 "
1H
19
1*
#410000
b10011 "
b10010 "
1?
0H
09
0F
1D
1B
0*
1G
0E
1C
16
07
08
0)
0(
1'
#415000
b10011 "
1H
19
1*
#420000
b10111 "
b10101 "
b10100 "
0?
1:
0H
09
0D
0B
0@
0*
1>
14
1%
0C
0A
05
06
0'
0&
#425000
b10101 "
1H
19
1*
#430000
b10111 "
b10110 "
1?
0H
09
1F
0*
0G
18
1)
#435000
b10111 "
1H
19
1*
#440000
b11111 "
b11011 "
b11001 "
b11000 "
0?
0:
1=
0H
09
0F
0*
1E
17
1G
1(
08
0)
#445000
b11001 "
1H
19
1*
#450000
b11011 "
b11010 "
1?
0H
09
1F
0*
0G
18
1)
#455000
b11011 "
1H
19
1*
#460000
b11111 "
b11101 "
b11100 "
0?
1:
0H
09
0F
1B
0*
0E
07
1G
0(
1C
16
08
0)
1'
#465000
b11101 "
1H
19
1*
#470000
b11111 "
b11110 "
1?
0H
09
1D
0B
0*
0C
06
0'
#475000
b11111 "
1H
19
1*
#480000
b111111 "
b101111 "
b100111 "
b100011 "
b100001 "
b100000 "
0?
0:
0=
0<
11
0H
09
0D
0*
0>
04
0%
#485000
b100001 "
1H
19
1*
#490000
b100011 "
b100010 "
1?
0H
09
1D
1B
0*
#495000
b100011 "
1H
19
1*
#500000
b100111 "
b100101 "
b100100 "
0?
1:
0H
09
0D
0B
0*
1E
17
1(
0E
07
0(
#505000
b100101 "
1H
19
1*
#510000
b100111 "
b100110 "
1?
0H
09
0*
#515000
b100111 "
1H
19
1*
#520000
b101111 "
b101011 "
b101001 "
b101000 "
0?
0:
1=
0H
09
0*
#525000
b101001 "
1H
19
1*
#530000
b101011 "
b101010 "
1?
0H
09
1@
0*
1A
15
1&
#535000
b101011 "
1H
19
1*
#540000
b101111 "
b101101 "
b101100 "
0?
1:
0H
09
1F
1B
0*
0G
18
1)
#545000
b101101 "
1H
19
1*
#550000
b101111 "
b101110 "
1?
0H
09
0F
1D
0B
0*
1G
1E
17
08
0)
1(
#555000
b101111 "
1H
19
1*
#560000
b111111 "
b110111 "
b110011 "
b110001 "
b110000 "
0?
0:
0=
1<
0H
09
1F
0D
0*
0E
07
0G
0(
1E
17
18
1)
1(
#565000
b110001 "
1H
19
1*
#570000
b110011 "
b110010 "
1?
0H
09
0F
1D
1B
0*
1G
0E
1C
16
07
08
0)
0(
1'
#575000
b110011 "
1H
19
1*
#580000
b110111 "
b110101 "
b110100 "
0?
1:
0H
09
0D
0B
0@
0*
1>
14
1%
0C
0A
05
06
0'
0&
#585000
b110101 "
1H
19
1*
#590000
b110111 "
b110110 "
1?
0H
09
1F
0*
0G
18
1)
#595000
b110111 "
1H
19
1*
#600000
b111111 "
b111011 "
b111001 "
b111000 "
0?
0:
1=
0H
09
0F
0*
1E
17
1G
1(
08
0)
#605000
b111001 "
1H
19
1*
#610000
b111011 "
b111010 "
1?
0H
09
1F
0*
0G
18
1)
#615000
b111011 "
1H
19
1*
#620000
b111111 "
b111101 "
b111100 "
0?
1:
0H
09
0F
1B
0*
0E
07
1G
0(
1C
16
08
0)
1'
#625000
b111101 "
1H
19
1*
#630000
b111111 "
b111110 "
1?
0H
09
1D
0B
0*
0C
06
0'
#635000
b111111 "
1H
19
1*
#640000
b11111 "
b1111 "
b111 "
b11 "
b1 "
b0 "
0?
0:
0=
0<
01
0H
09
0D
0*
0>
04
0%
#645000
b1 "
1H
19
1*
#650000
b11 "
b10 "
1?
0H
09
1D
1B
0*
#655000
b11 "
1H
19
1*
#660000
b111 "
b101 "
b100 "
0?
1:
0H
09
0D
0B
0*
1E
17
1(
0E
07
0(
#665000
b101 "
1H
19
1*
#670000
b111 "
b110 "
1?
0H
09
0*
#675000
b111 "
1H
19
1*
#680000
b1111 "
b1011 "
b1001 "
b1000 "
0?
0:
1=
0H
09
0*
#685000
b1001 "
1H
19
1*
#690000
b1011 "
b1010 "
1?
0H
09
1@
0*
1A
15
1&
#695000
b1011 "
1H
19
1*
#700000
b1111 "
b1101 "
b1100 "
0?
1:
0H
09
1F
1B
0*
0G
18
1)
#705000
b1101 "
1H
19
1*
#710000
b1111 "
b1110 "
1?
0H
09
0F
1D
0B
0*
1G
1E
17
08
0)
1(
#715000
b1111 "
1H
19
1*
#720000
b11111 "
b10111 "
b10011 "
b10001 "
b10000 "
0?
0:
0=
1<
0H
09
1F
0D
0*
0E
07
0G
0(
1E
17
18
1)
1(
#725000
b10001 "
1H
19
1*
#730000
b10011 "
b10010 "
1?
0H
09
0F
1D
1B
0*
1G
0E
1C
16
07
08
0)
0(
1'
#735000
b10011 "
1H
19
1*
#740000
b10111 "
b10101 "
b10100 "
0?
1:
0H
09
0D
0B
0@
0*
1>
14
1%
0C
0A
05
06
0'
0&
#745000
b10101 "
1H
19
1*
#750000
b10111 "
b10110 "
1?
0H
09
1F
0*
0G
18
1)
#755000
b10111 "
1H
19
1*
#760000
b11111 "
b11011 "
b11001 "
b11000 "
0?
0:
1=
0H
09
0F
0*
1E
17
1G
1(
08
0)
#765000
b11001 "
1H
19
1*
#770000
b11011 "
b11010 "
1?
0H
09
1F
0*
0G
18
1)
#775000
b11011 "
1H
19
1*
#780000
b11111 "
b11101 "
b11100 "
0?
1:
0H
09
0F
1B
0*
0E
07
1G
0(
1C
16
08
0)
1'
#785000
b11101 "
1H
19
1*
#790000
b11111 "
b11110 "
1?
0H
09
1D
0B
0*
0C
06
0'
#795000
b11111 "
1H
19
1*
#800000
b111111 "
b101111 "
b100111 "
b100011 "
b100001 "
b100000 "
0?
0:
0=
0<
11
0H
09
0D
0*
0>
04
0%
#805000
b100001 "
1H
19
1*
#810000
b100011 "
b100010 "
1?
0H
09
1D
1B
0*
#815000
b100011 "
1H
19
1*
#820000
b100111 "
b100101 "
b100100 "
0?
1:
0H
09
0D
0B
0*
1E
17
1(
0E
07
0(
#825000
b100101 "
1H
19
1*
#830000
b100111 "
b100110 "
1?
0H
09
0*
#835000
b100111 "
1H
19
1*
#840000
b101111 "
b101011 "
b101001 "
b101000 "
0?
0:
1=
0H
09
0*
#845000
b101001 "
1H
19
1*
#850000
b101011 "
b101010 "
1?
0H
09
1@
0*
1A
15
1&
#855000
b101011 "
1H
19
1*
#860000
b101111 "
b101101 "
b101100 "
0?
1:
0H
09
1F
1B
0*
0G
18
1)
#865000
b101101 "
1H
19
1*
#870000
b101111 "
b101110 "
1?
0H
09
0F
1D
0B
0*
1G
1E
17
08
0)
1(
#875000
b101111 "
1H
19
1*
#880000
b111111 "
b110111 "
b110011 "
b110001 "
b110000 "
0?
0:
0=
1<
0H
09
1F
0D
0*
0E
07
0G
0(
1E
17
18
1)
1(
#885000
b110001 "
1H
19
1*
#890000
b110011 "
b110010 "
1?
0H
09
0F
1D
1B
0*
1G
0E
1C
16
07
08
0)
0(
1'
#895000
b110011 "
1H
19
1*
#900000
b110111 "
b110101 "
b110100 "
0?
1:
0H
09
0D
0B
0@
0*
1>
14
1%
0C
0A
05
06
0'
0&
#905000
b110101 "
1H
19
1*
#910000
b110111 "
b110110 "
1?
0H
09
1F
0*
0G
18
1)
#915000
b110111 "
1H
19
1*
#920000
b111111 "
b111011 "
b111001 "
b111000 "
0?
0:
1=
0H
09
0F
0*
1E
17
1G
1(
08
0)
#925000
b111001 "
1H
19
1*
#930000
b111011 "
b111010 "
1?
0H
09
1F
0*
0G
18
1)
#935000
b111011 "
1H
19
1*
#940000
b111111 "
b111101 "
b111100 "
0?
1:
0H
09
0F
1B
0*
0E
07
1G
0(
1C
16
08
0)
1'
#945000
b111101 "
1H
19
1*
#950000
b111111 "
b111110 "
1?
0H
09
1D
0B
0*
0C
06
0'
#955000
b111111 "
1H
19
1*
#960000
b11111 "
b1111 "
b111 "
b11 "
b1 "
b0 "
0?
0:
0=
0<
01
0H
09
0D
0*
0>
04
0%
#965000
b1 "
1H
19
1*
#970000
b11 "
b10 "
1?
0H
09
1D
1B
0*
#975000
b11 "
1H
19
1*
#980000
b111 "
b101 "
b100 "
0?
1:
0H
09
0D
0B
0*
1E
17
1(
0E
07
0(
#985000
b101 "
1H
19
1*
#990000
b111 "
b110 "
1?
0H
09
0*
#995000
b111 "
1H
19
1*
