simulation/qsim/ULA.msim.vcd
$comment
	File created using the following command:
		vcd file ULA.msim.vcd -direction
$end
$date
	Wed Jul 21 19:53:01 2021
$end
$version
	ModelSim Version 2020.1
$end
$timescale
	1ps
$end

$scope module AND_completo_vlg_vec_tst $end
$var reg 5 ! A [4:0] $end
$var reg 5 " B [4:0] $end
$var wire 1 # S [4] $end
$var wire 1 $ S [3] $end
$var wire 1 % S [2] $end
$var wire 1 & S [1] $end
$var wire 1 ' S [0] $end

$scope module i1 $end
$var wire 1 ( gnd $end
$var wire 1 ) vcc $end
$var wire 1 * unknown $end
$var tri1 1 + devclrn $end
$var tri1 1 , devpor $end
$var tri1 1 - devoe $end
$var wire 1 . S[4]~output_o $end
$var wire 1 / S[3]~output_o $end
$var wire 1 0 S[2]~output_o $end
$var wire 1 1 S[1]~output_o $end
$var wire 1 2 S[0]~output_o $end
$var wire 1 3 A[4]~input_o $end
$var wire 1 4 B[4]~input_o $end
$var wire 1 5 and_5~combout $end
$var wire 1 6 B[3]~input_o $end
$var wire 1 7 A[3]~input_o $end
$var wire 1 8 and_4~combout $end
$var wire 1 9 B[2]~input_o $end
$var wire 1 : A[2]~input_o $end
$var wire 1 ; and_3~combout $end
$var wire 1 < A[1]~input_o $end
$var wire 1 = B[1]~input_o $end
$var wire 1 > and_2~combout $end
$var wire 1 ? A[0]~input_o $end
$var wire 1 @ B[0]~input_o $end
$var wire 1 A and_1~combout $end
$upscope $end
$upscope $end
$enddefinitions $end
#0
$dumpvars
b10000 !
b10 "
0'
0&
0%
0$
0#
0(
1)
x*
1+
1,
1-
0.
0/
00
01
02
13
04
05
06
07
08
09
0:
0;
0<
1=
0>
0?
0@
0A
$end
#5000
b0 !
b1000 !
b1100 !
b1110 !
b1111 !
b0 "
b1 "
1@
0=
1?
1<
1:
17
03
1A
12
1'
#10000
b10001 "
b11001 "
b11111 !
b10111 !
b10101 !
b11011 "
b11010 "
0<
07
13
0@
1=
16
14
15
0A
02
1.
1#
0'
#15000
b11110 "
b1110 "
b10111 !
1<
19
04
1>
1;
05
0.
10
11
1&
1%
0#
#20000
b10011 !
b110 "
b11 !
b100 "
b1 !
0=
06
0<
0:
03
0>
0;
00
01
0&
0%
#25000
b0 !
b0 "
b10000 "
b11000 "
b11010 "
1=
09
16
14
0?
#30000
b10 !
b11 !
b11110 "
b10110 "
19
06
1?
1<
1>
11
1&
#35000
b10111 "
b111 !
b10111 !
b111 "
b101 "
1:
13
1@
0=
04
1;
1A
0>
01
12
10
1%
1'
0&
#40000
b11111 !
b1101 "
b1100 "
b1111 !
0@
16
17
03
0A
18
1/
02
0'
1$
#45000
b1101 !
b1100 !
b1000 "
b11000 "
b11010 "
b100 !
b10010 "
b10011 "
1@
1=
09
06
14
0?
0<
07
0;
08
0/
00
0%
0$
#50000
b0 !
b10 !
b1010 !
b10010 "
0@
1<
0:
17
1>
11
1&
#55000
b11010 !
b10 "
b10010 !
04
07
13
#60000
b110 "
b10110 !
b111 "
b11110 !
1:
17
1@
19
1;
10
1%
#65000
b11111 !
b1111 "
b11101 !
b1101 !
b1011 "
b1010 "
0@
09
16
1?
0<
03
0;
18
0>
01
1/
00
0%
1$
0&
#70000
b1000 "
b11000 "
b10000 "
b1111 !
b11111 !
1<
13
0=
06
14
15
08
0/
1.
1#
0$
#75000
b10111 !
b10100 "
b100 "
b10101 !
19
04
0<
07
1;
05
0.
10
1%
0#
#80000
b10001 !
b101 "
b11001 !
b1 "
b11011 !
1@
09
1<
0:
17
1A
0;
00
12
1'
0%
#85000
b11010 !
b1010 !
b0 "
b1000 !
0@
0?
0<
03
0A
02
0'
#90000
b10 "
b10010 "
b0 !
b10110 "
b10000 !
07
13
1=
19
14
15
1.
1#
#95000
b11110 "
b10001 !
b11111 "
b11101 "
b1101 "
1?
1@
0=
16
04
1A
05
0.
12
1'
0#
#100000
b10101 !
b1001 "
b1 "
b0 "
b10000 "
0@
09
06
14
1:
0A
15
1.
02
0'
1#
#105000
b11101 !
b1101 !
b1100 !
b10010 "
b1000 !
b11010 "
b11011 "
b1011 "
1@
1=
16
04
0?
0:
17
03
18
05
0.
1/
1$
0#
#110000
b1111 "
b1101 "
b1100 !
b101 "
1:
0=
19
06
1;
08
0/
10
1%
0$
#115000
b11100 !
b1 "
b11 "
b11000 !
b1011 "
1=
09
16
0:
13
0;
18
1/
00
0%
1$
#120000
b11010 !
b11011 !
b1010 "
b1011 !
b1000 "
b0 "
0@
0=
06
1?
1<
03
08
0/
0$
#125000
b10000 "
b10100 "
b1001 !
b10110 "
0<
1=
19
14
#130000
b1101 !
b11101 !
b11110 "
b11010 "
b11111 !
b11000 "
0=
09
16
1<
1:
13
18
15
1.
1/
1$
1#
#135000
b1000 "
b0 "
b11101 !
b10 "
0<
1=
06
04
08
05
0.
0/
0$
0#
#140000
b11 "
b1101 !
b1011 "
03
1@
16
1A
18
1/
12
1'
1$
#145000
b1111 "
b1110 "
0@
19
0A
1;
10
02
0'
1%
#150000
b101 !
b1 !
b1100 "
b1000 "
b1001 "
1@
0=
09
0:
07
1A
0;
08
0/
00
12
1'
0%
0$
#155000
b0 !
b11001 "
b10 !
b10001 "
b1010 !
b1110 !
b10101 "
19
06
14
0?
1<
1:
17
1;
0A
02
10
1%
0'
#160000
b11110 !
b10111 "
b10110 "
b11111 !
b11110 "
b10111 !
0@
1=
16
1?
07
13
1>
15
1.
11
1&
1#
#165000
b1110 "
b10011 !
b11 !
0:
03
04
0;
05
0.
00
0%
0#
#170000
b1111 "
b10 !
b1010 !
b11111 "
b1110 !
b11110 !
0?
1:
17
13
1@
14
1;
18
15
1.
1/
10
1%
1$
1#
#175000
b11100 !
b1111 "
04
0<
05
0>
01
0.
0#
0&
#180000
b1011 "
b11 "
b10 "
b11101 !
b10101 !
b101 !
1?
07
03
0@
09
06
08
0;
00
0/
0$
0%
#185000
b0 "
b1 !
b1000 "
b1001 "
b10001 !
0:
13
1@
0=
16
1A
12
1'
#190000
b10011 !
b1101 "
b10010 !
b11010 !
b11110 !
b101 "
b100 "
b1110 !
0@
19
06
0?
1<
1:
17
03
0A
1;
10
02
0'
1%
#195000
b10100 "
b10000 "
b11000 "
b11110 !
13
09
16
14
15
0;
18
1/
00
1.
1#
0%
1$
#200000
b11010 "
b11100 !
b11000 !
b11011 "
b10011 "
b1000 !
0<
0:
03
1@
1=
06
05
08
0/
0.
0#
0$
#205000
b11 "
b1 "
b1010 !
b0 "
b1000 "
1<
0@
0=
16
04
18
1/
1$
#210000
b1011 !
b11 !
b111 !
b10111 !
b11000 "
b11001 "
1@
14
1?
1:
07
13
1A
15
08
0/
1.
12
1'
1#
0$
#215000
b11011 "
b10101 !
b10100 !
b11100 !
b11000 !
b11010 "
0?
0<
0:
17
0@
1=
0A
18
1/
02
0'
1$
#220000
b11110 "
b1000 !
b1110 "
b1010 !
b1011 !
b11 !
b111 !
b1111 "
1?
1<
1:
07
03
1@
19
04
1A
1>
1;
08
05
0.
0/
10
11
12
1'
1&
1%
0$
0#
#225000
b1011 "
b11011 "
b11 !
0:
09
14
0;
00
0%
#230000
b10011 "
b10001 "
b10011 !
b10001 !
b10000 !
b10000 "
b10100 "
b10100 !
0?
0<
1:
13
0@
0=
19
06
0A
0>
1;
15
1.
10
01
02
0'
0&
1%
1#
#235000
b100 "
b1100 "
b100 !
b1000 "
03
09
16
04
05
0;
00
0.
0#
0%
#240000
b1100 !
b1010 "
b10 "
b110 "
1=
19
06
17
1;
10
1%
#245000
b1110 !
b111 "
b10111 "
b110 !
1@
14
1<
07
1>
11
1&
#250000
b111 !
b11 !
b10101 "
b11101 "
b11001 "
b1 !
b11000 "
0@
0=
09
16
1?
0<
0:
0>
0;
00
01
0&
0%
#255000
b1000 "
b101 !
b1001 "
1:
1@
04
1A
12
1'
#260000
b100 !
b1101 "
b11101 "
b11100 "
0@
19
14
0?
0A
1;
10
02
0'
1%
#265000
b10100 "
b110 !
b10 !
b10101 "
1<
0:
1@
06
0;
00
0%
#270000
b1010 !
b10001 "
b1 "
b1000 !
b1100 !
b0 "
0@
09
04
0<
1:
17
#275000
b100 !
b10000 "
b110 !
b10001 "
1@
14
1<
07
#280000
b1 "
04
#285000
b10110 !
b11 "
b10010 !
b10000 !
b10011 "
1=
14
0<
0:
13
15
1.
1#
#290000
b11011 "
b11111 "
b11000 !
b1000 !
b1100 !
b1110 !
b1111 "
1<
1:
17
03
19
16
04
1>
1;
18
05
0.
1/
10
11
1&
1%
1$
0#
#295000
b1111 !
b1011 !
1?
0:
1A
0;
00
12
1'
0%
#300000
b1110 "
b110 "
b11011 !
b10110 "
b11010 !
b11110 !
0?
1:
13
0@
06
14
0A
1;
15
08
0/
1.
10
02
0'
1%
1#
0$
#305000
b10111 "
b11111 "
b1111 "
b11010 !
0:
1@
16
04
0;
18
05
0.
1/
00
0%
1$
0#
#310000
b1101 "
b1001 "
b11011 !
b1 "
b10001 "
b11111 !
1?
1:
0=
09
06
14
1A
0>
08
15
1.
0/
01
12
1'
0&
0$
1#
#315000
b10111 !
b10101 !
b10011 "
b10100 !
b11011 "
b1011 "
1=
16
04
0?
0<
07
05
0A
02
0.
0#
0'
#320000
b100 !
b1010 "
b0 !
b1 !
b11010 "
0@
14
1?
0:
03
#325000
b11 !
b11000 "
b10000 "
0=
06
1<
#330000
b10001 "
b10 !
b10011 "
0?
1@
1=
1>
11
1&
#335000
b10111 "
b10010 !
b11111 "
b10011 !
b11101 "
1?
13
0=
19
16
1A
15
0>
01
1.
12
1'
1#
0&
#340000
b11011 !
b11111 !
b11101 !
b11100 "
0@
0<
1:
17
0A
1;
18
1/
10
02
0'
1%
1$
#345000
b1101 !
b10100 "
b1001 !
b10101 "
1@
06
0:
03
1A
08
0;
05
0.
00
0/
12
1'
0$
0%
0#
#350000
b101 "
04
#355000
b1 "
b11 "
b1011 !
b11011 !
b1011 "
b1010 "
1<
13
0@
1=
09
16
1>
0A
18
1/
02
11
1&
0'
1$
#360000
b11010 !
b11110 !
b1110 "
b11100 !
b110 "
b111 "
1@
19
06
0?
0<
1:
1;
08
0>
01
0/
10
1%
0$
0&
#365000
b10100 !
b10111 "
b10101 "
b100 !
b101 !
b1 !
b11 !
b11101 "
b11100 "
0@
0=
16
14
1?
1<
0:
07
03
0;
00
0%
#370000
b10011 !
b11101 "
1@
13
1A
15
1.
12
1'
1#
#375000
b1101 "
b10010 !
b10000 !
b101 "
b100 "
0?
0<
0@
06
04
0A
05
0.
02
0'
0#
#380000
b0 !
b1 !
b11 !
b1100 "
b1101 "
1@
16
1?
1<
03
1A
12
1'
#385000
b111 !
b11101 "
b110 !
14
0?
1:
0A
1;
10
02
0'
1%
#390000
b11001 "
b1110 !
b11110 !
b11100 !
b10001 "
b10000 "
b0 "
b11101 !
1?
0<
17
13
0@
09
06
04
0;
00
0%
#395000
b11001 !
b10001 !
b1 "
b10001 "
b10000 !
1@
14
0?
0:
07
15
1.
1#
#400000
b0 !
b11001 "
b1001 "
b1 !
16
04
1?
03
05
1A
12
0.
0#
1'
#405000
b1000 "
b11000 "
b0 !
0?
0@
14
0A
02
0'
#410000
b11010 "
b11110 "
b10 !
b110 !
b10110 "
1<
1:
1=
19
06
1>
1;
10
11
1&
1%
#415000
b10110 !
b110 "
b10 "
b10100 !
b10000 !
09
04
0<
0:
13
0;
0>
01
00
0%
0&
#420000
b11000 !
b11001 !
b1001 !
b1011 !
1?
1<
17
03
1>
11
1&
#425000
b11 "
b1 "
b10001 "
b1111 !
b1110 !
b1100 !
0?
0<
1:
1@
0=
14
0>
01
0&
#430000
b11001 "
b11011 "
b1000 !
b1001 !
1?
0:
1=
16
1A
18
1/
12
1'
1$
#435000
b1 !
b10001 !
b11010 "
b10101 !
b10100 !
0@
0?
1:
07
13
0A
08
15
1.
0/
02
0'
0$
1#
#440000
b11110 "
b1110 "
b1100 "
b11100 !
b11000 !
0:
17
0=
19
04
18
05
0.
1/
1$
0#
#445000
b11010 !
b100 "
b1010 !
b101 "
b1011 !
b1 "
b11 !
b111 !
1@
09
06
1?
1<
1:
07
03
1A
08
0/
12
1'
0$
#450000
b10001 "
b110 !
b10101 "
b1110 !
b1010 !
0?
0:
17
19
14
0A
02
0'
#455000
b1000 !
b11000 !
b10100 "
b100 "
b11001 !
b11101 !
0@
04
1?
0<
1:
13
1;
10
1%
#460000
b110 "
b1110 "
b1010 "
b10101 !
b101 !
b11010 "
b100 !
b0 !
0?
0:
07
03
1=
09
16
14
0;
00
0%
#465000
b10 !
b11011 "
b11001 "
b10001 "
b10010 !
b1 "
b10011 !
1@
0=
06
04
1?
1<
13
1A
12
1'
#470000
b101 "
b11011 !
b11111 !
b11101 !
b111 "
b1111 "
b1101 !
b1100 !
0?
0<
1:
17
03
1=
19
16
0A
1;
18
1/
10
02
0'
1%
1$
#475000
b100 !
b0 !
b1101 "
b101 "
b10000 !
0=
06
0:
07
13
08
0;
00
0/
0$
0%
#480000
b10101 "
b10001 "
b10001 !
b11001 "
1?
09
16
14
1A
15
1.
12
1'
1#
#485000
b11000 "
b10011 !
b11011 !
b11111 !
b1000 "
1<
1:
17
0@
04
18
0A
05
0.
02
1/
1$
0'
0#
#490000
b1010 "
b1111 !
b1110 "
b110 "
b111 "
b10111 "
03
1@
1=
19
06
14
1A
1>
1;
08
0/
10
11
12
1'
1&
1%
0$
#495000
b111 !
b11 !
b10101 "
b10011 !
b10100 "
b100 "
0@
0=
04
0:
07
13
0A
0>
0;
00
01
02
0'
0&
0%
#500000
b10010 !
b1100 "
b1110 "
b1111 "
b11111 "
1@
1=
16
14
0?
1>
15
1.
11
1&
1#
#505000
b10000 !
b11000 !
b1000 !
b10111 "
b10101 "
b10100 "
0@
0=
06
0<
17
03
0>
05
0.
01
0&
0#
#510000
b1100 !
b100 !
b10100 !
b10101 "
1@
1:
07
13
1;
15
1.
10
1%
1#
#515000
b10001 "
b10101 !
b11001 "
b11101 !
b1101 !
1?
17
03
09
16
1A
18
05
0;
00
0.
1/
12
1'
1$
0#
0%
#520000
b1111 !
b11101 "
b1110 !
19
0?
1<
1;
0A
02
10
1%
0'
#525000
b1101 "
b1010 !
b1100 "
b100 "
b1000 !
b1001 !
1?
0<
0:
0@
06
04
0;
08
0/
00
0%
0$
#530000
b110 "
b1 !
b10001 !
b10110 "
b10101 !
b10111 "
b10111 !
b10110 !
0?
1<
1:
07
13
1@
1=
14
1>
1;
15
1.
10
11
1&
1%
1#
#535000
b10011 "
b11011 "
b11001 "
b11110 !
b11010 !
b11000 "
b11000 !
0<
0:
17
0@
0=
09
16
0>
0;
18
1/
00
01
0&
0%
1$
#540000
b10000 "
b11100 !
b11110 !
1<
1:
06
08
0/
0$
#545000
b10100 "
b10110 !
07
19
1;
10
1%
#550000
b100 "
b101 "
b10010 !
b10000 !
0<
0:
1@
04
0;
05
0.
00
0%
0#
#555000
b0 !
b1 !
b10101 "
b101 !
b111 !
14
1?
1<
1:
03
1A
1;
10
12
1'
1%
#560000
b10001 "
b10000 "
b10111 !
b0 "
b10101 !
0<
13
0@
09
04
0A
0;
00
02
0'
0%
#565000
b10 "
b1010 "
b10100 !
b10000 !
b1110 "
b10010 !
0?
1<
0:
1=
19
16
1>
11
1&
#570000
b11110 "
b11100 "
b10100 "
b10110 !
b10000 "
1:
0=
09
06
14
0>
15
1.
01
0&
1#
#575000
b10001 "
b110 !
b111 !
b1 "
b11 !
b101 "
1?
0:
03
1@
19
04
1A
05
0.
12
1'
0#
#580000
b1 !
b111 "
b1111 "
b1110 "
b11110 "
0@
1=
16
14
0<
0A
02
0'
#585000
b10001 !
b10000 !
b10100 !
b11010 "
b11000 "
b10000 "
b0 "
0=
09
06
04
0?
1:
13
#590000
b11100 !
b1 "
b1100 !
b1101 !
b101 "
b1101 "
b11101 "
1@
19
16
14
1?
17
03
1A
1;
18
1/
10
12
1'
1%
1$
#595000
b1001 !
b11001 !
b10101 "
b101 "
06
04
0:
13
08
0;
00
0/
0$
0%
#600000
b111 "
b10001 !
b110 "
b10 "
b1 !
b10010 "
07
03
0@
1=
09
14
0A
02
0'
#605000
b11 !
b1011 !
b11011 !
1<
17
13
1>
15
1.
11
1&
1#
#610000
b11010 !
b11010 "
b11000 "
b1000 "
b11000 !
b1000 !
0=
16
04
0?
0<
03
0>
18
05
0.
1/
01
0&
1$
0#
#615000
b1100 !
b1001 "
b1101 "
b101 "
b10101 "
b1110 !
b11110 !
1@
19
06
14
1<
1:
13
1;
08
15
1.
0/
10
1%
0$
1#
#620000
b11111 !
b10111 "
b10110 "
b10010 "
b11101 !
0@
1=
09
1?
0<
0;
00
0%
#625000
b10101 !
b10001 !
b10 "
b1 !
b0 !
b11 "
1@
04
0?
0:
07
03
05
0.
0#
#630000
b111 "
b10 !
b110 !
1<
1:
19
1>
1;
10
11
1&
1%
#635000
b1110 !
b10111 "
b11110 !
b11111 !
b10011 "
b11101 !
09
14
1?
0<
17
13
0;
15
1A
0>
01
12
1.
00
0%
1#
1'
0&
#640000
b11011 "
b11001 !
b10001 !
b1011 "
b10000 !
b10010 !
0?
1<
0:
07
16
04
0A
1>
05
0.
11
02
0'
1&
0#
#645000
b1001 "
b11010 !
b11011 !
b11001 !
1?
0<
17
0=
1A
0>
18
1/
01
12
1'
0&
1$
#650000
b1 "
b11 "
b10001 !
b10000 !
0?
07
1=
06
0A
08
0/
02
0'
0$
#655000
b0 !
b1011 "
b1001 "
0=
16
03
#660000
b11001 "
b1000 !
b1001 !
b10001 "
b10011 "
1?
17
1=
06
14
1A
12
1'
#665000
b10010 "
b1101 !
b1111 !
b111 !
b110 !
b10000 "
0?
1<
1:
07
0@
0=
0A
02
0'
#670000
b10100 "
b10110 !
b100 "
b10111 !
b110 "
1?
13
1=
19
04
1>
1;
10
11
1&
1%
#675000
b1110 "
b1111 "
b1011 "
b11011 "
1@
09
16
14
1A
0;
15
1.
00
12
1'
0%
1#
#680000
b10101 !
b11101 !
b1101 !
b10011 "
b10010 "
b10110 "
0@
19
06
0<
17
03
0A
1;
0>
05
0.
01
10
02
0'
1%
0&
0#
#685000
b1001 !
b110 "
b11001 !
b1110 "
b1111 "
1@
16
04
0:
13
1A
18
0;
00
1/
12
1'
1$
0%
#690000
b10001 !
b10101 !
b11111 "
b11110 "
0@
14
1:
07
0A
15
1;
08
0/
10
1.
02
0'
1#
1%
0$
#695000
b10100 !
b11100 "
b100 !
b1100 !
0=
0?
17
03
18
05
0.
1/
1$
0#
#700000
b1000 !
b1100 "
b1101 "
b1001 !
b11001 !
1@
04
1?
0:
13
1A
0;
00
12
1'
0%
#705000
b11011 !
b10011 !
b11 !
1<
07
03
08
0/
0$
#710000
b1001 "
b1 !
b1001 !
0<
17
09
18
1/
1$
#715000
b1011 "
b11011 "
b11010 "
b1000 !
b1010 !
b10 !
0?
1<
07
0@
1=
14
0A
1>
08
0/
11
02
0'
1&
0$
#720000
b10010 "
b10000 "
b10001 "
b11 !
1?
1@
0=
06
1A
0>
01
12
1'
0&
#725000
b111 !
b10111 !
b10101 "
b11111 !
b11101 "
b11100 "
b11110 !
0@
19
16
0?
1:
17
13
0A
1;
18
15
1.
1/
10
02
0'
1%
1$
1#
#730000
b11100 !
b11110 "
b11000 !
b1000 !
b0 !
b11111 "
1@
1=
0<
0:
07
03
0;
08
05
0.
0/
00
0%
0$
0#
#735000
b1111 "
b111 "
b10 !
b110 !
b10110 !
b11110 !
b110 "
1<
1:
17
13
0@
06
04
1>
1;
10
11
1&
1%
#740000
b11111 !
b10110 "
b11110 "
b11011 !
b1011 !
b11 !
16
14
1?
0:
07
03
0;
00
0%
#745000
b11010 "
b11000 "
b1 !
b11001 "
b0 !
b10001 "
b100 !
b10100 !
b11100 !
0?
0<
1:
17
13
1@
0=
09
06
0>
15
1.
01
0&
1#
#750000
b10101 "
b10111 "
b11000 !
b1000 !
b0 !
0:
07
03
1=
19
05
0.
0#
#755000
b111 "
b10 !
b1111 "
1<
16
04
1>
11
1&
#760000
b1110 "
b1100 "
b110 !
b100 !
0<
1:
0@
0=
0>
1;
10
01
0&
1%
#765000
b1000 "
b11000 "
b11001 "
1@
09
14
0;
00
0%
#770000
b10100 !
b11100 !
b11011 "
b11111 "
b11110 "
0@
1=
19
17
13
1;
18
15
1.
1/
10
1%
1$
1#
#775000
b11101 !
b11111 !
b10111 !
b11100 "
0=
1?
1<
07
08
0/
0$
#780000
b10011 !
b11 !
b11101 "
b1 !
b11111 "
1@
1=
0<
0:
03
1A
0;
05
0.
00
12
1'
0%
0#
#785000
b10111 "
b10110 "
b11 !
b10100 "
1<
0@
0=
06
0A
02
0'
#790000
b10000 "
b10 !
b1010 !
b1110 !
b1100 !
0?
0<
1:
17
09
#795000
b11100 !
b10001 "
b10100 !
b10110 !
1@
1<
07
13
15
1.
1#
#800000
b1 "
b10010 !
b10 !
b1010 !
b1000 !
0<
0:
17
03
04
05
0.
0#
#805000
b1001 !
b1101 !
b101 !
1?
1:
07
1A
12
1'
#810000
b1001 "
b1101 "
b111 !
b110 !
b10 !
0?
1<
0:
19
16
0A
02
0'
#815000
b1111 "
b1110 "
b1010 !
b110 "
b1110 !
1:
17
0@
1=
06
1;
1>
11
10
1%
1&
#820000
b10110 "
b1100 !
b10111 "
b11111 "
b1000 !
0<
0:
1@
16
14
0>
0;
18
1/
00
01
0&
0%
1$
#825000
b11000 !
b11001 !
b11101 "
b10001 !
b1101 "
b10011 !
b1100 "
b10111 !
0@
0=
04
1?
1<
1:
07
13
1;
08
0/
10
1%
0$
#830000
b1000 "
b111 !
b110 !
b11000 "
b10 !
0?
0:
03
09
14
0;
00
0%
#835000
b1010 !
b11100 "
b11010 !
b11110 !
19
1:
17
13
1;
18
15
1.
1/
10
1%
1$
1#
#840000
b10100 "
b11111 !
b10000 "
b11011 !
1?
0:
09
06
0;
08
0/
00
0%
0$
#845000
b10010 "
b11001 !
b10011 "
b11 "
b10001 !
b1011 "
0<
07
1@
1=
16
04
1A
05
0.
12
1'
0#
#850000
b1 !
b0 !
b1111 "
b100 !
b1101 "
b1100 "
b11100 "
0@
0=
19
14
0?
1:
03
0A
1;
10
02
0'
1%
#855000
b1100 !
b1101 !
b11000 "
b11001 "
1@
09
1?
17
1A
0;
18
1/
00
12
1'
0%
1$
#860000
b1001 !
b11011 "
b1011 "
b1 !
b1111 "
1=
19
04
0:
07
08
0/
0$
#865000
b101 !
b1101 "
b1001 "
0=
09
1:
#870000
b10101 !
b1000 "
b11101 !
b1100 "
0@
19
17
13
0A
1;
18
1/
10
02
0'
1%
1$
#875000
b11111 !
b100 "
b11011 !
b101 "
1@
06
1<
0:
1A
08
0;
00
0/
12
1'
0$
0%
#880000
b11010 !
b111 "
b1010 !
b1110 !
b110 "
0@
1=
0?
1:
03
0A
1>
1;
10
11
02
0'
1&
1%
#885000
b10110 "
b1100 !
b1000 !
b10111 "
0<
0:
1@
14
0>
0;
00
01
0&
0%
#890000
b10011 "
b11011 "
b1001 !
b11001 !
b1011 "
b11101 !
1?
1:
13
09
16
04
1A
18
1/
12
1'
1$
#895000
b10101 !
b11 "
b10100 !
b10011 "
b10000 !
06
14
0?
0:
07
08
15
0A
02
1.
0/
0$
1#
0'
#900000
b10001 "
b10010 !
b10000 "
b10100 "
b10 !
b1010 !
b1011 !
b1111 !
1?
1<
1:
17
03
0@
0=
19
1;
05
0.
10
1%
0#
#905000
b11100 "
b11110 "
b1101 !
b11101 !
b10101 !
b10100 !
0?
0<
07
13
1=
16
15
1.
1#
#910000
b11111 "
b11011 "
b11001 "
b10110 !
b10111 !
1?
1<
1@
0=
09
1A
0;
00
12
1'
0%
#915000
b10011 !
b11011 !
b11000 "
b11010 !
0@
0?
0:
17
0A
18
1/
02
0'
1$
#920000
b1000 "
b1100 "
b1110 "
b11110 !
b10110 !
1:
07
1=
19
04
1;
08
1>
05
0.
11
0/
10
1%
0$
1&
0#
#925000
b110 "
b110 !
b100 !
b101 !
b10 "
b1 !
b1001 !
1?
0<
0:
17
03
09
06
0>
0;
00
01
0&
0%
#930000
b11 "
b1011 !
b1010 !
b1110 !
0?
1<
1:
1@
1>
11
1&
#935000
b1 "
b1001 "
b1101 "
b110 !
b1100 "
b100 !
b0 !
0<
0:
07
0@
0=
19
16
0>
01
0&
#940000
b11100 "
b11000 "
b1000 !
17
09
14
18
1/
1$
#945000
b11000 !
b11001 !
b11010 "
b11101 !
1=
1?
1:
13
15
1.
1#
#950000
b11011 "
b11111 !
b10111 !
b10110 !
b11001 "
0?
1<
07
1@
0=
08
0/
0$
#955000
b1001 "
b110 !
b1000 "
b100 !
0<
03
0@
04
05
0.
0#
#960000
b0 "
b100 "
b101 !
b10101 !
b101 "
1?
13
1@
19
06
1A
1;
10
12
1'
1%
#965000
b11101 !
b111 "
b11111 !
b1111 "
b1111 !
b1110 "
0@
1=
16
1<
17
03
0A
1>
18
1/
11
02
0'
1&
1$
#970000
b1011 !
b1010 "
b1010 !
b1000 "
b1000 !
b1001 "
1@
0=
09
0?
0<
0:
0>
0;
00
01
0&
0%
#975000
b11001 "
b1001 !
b11011 "
b11010 "
1?
0@
1=
14
#980000
b1 !
b10001 !
b10101 !
b10111 !
b1010 "
04
1<
1:
07
13
1>
08
0/
11
1&
0$
#985000
b10 "
b110 "
b111 "
b11111 !
b1111 !
b1011 !
b1001 !
0<
0:
17
03
1@
19
06
0>
1A
12
01
0&
1'
#990000
b101 "
b1101 "
b1 !
b10001 !
07
13
0=
16
#995000
b1001 "
b1 "
b11001 !
17
09
06
